info face="Verdana" size=22 bold=0 italic=0 charset="" unicode=1 stretchH=100 smooth=1 aa=1 padding=0,0,0,0 spacing=1,1 outline=3
common lineHeight=22 base=18 scaleW=523 scaleH=523 pages=1 packed=0 alphaChnl=1 redChnl=0 greenChnl=0 blueChnl=0
page id=0 file="DebugNode_0.png"
chars count=191
char id=32   x=515   y=65    width=7     height=7     xoffset=-3    yoffset=15    xadvance=6     page=0  chnl=15
char id=33   x=167   y=88    width=8     height=19    xoffset=0     yoffset=2     xadvance=7     page=0  chnl=15
char id=34   x=272   y=105   width=11    height=11    xoffset=-2    yoffset=1     xadvance=8     page=0  chnl=15
char id=35   x=73    y=69    width=17    height=19    xoffset=-1    yoffset=2     xadvance=15    page=0  chnl=15
char id=36   x=115   y=25    width=15    height=22    xoffset=-2    yoffset=2     xadvance=11    page=0  chnl=15
char id=37   x=268   y=46    width=23    height=19    xoffset=-2    yoffset=2     xadvance=19    page=0  chnl=15
char id=38   x=478   y=45    width=18    height=19    xoffset=-2    yoffset=2     xadvance=13    page=0  chnl=15
char id=39   x=284   y=105   width=8     height=11    xoffset=-2    yoffset=1     xadvance=5     page=0  chnl=15
char id=40   x=105   y=0     width=11    height=24    xoffset=-2    yoffset=1     xadvance=8     page=0  chnl=15
char id=41   x=117   y=0     width=11    height=24    xoffset=-2    yoffset=1     xadvance=8     page=0  chnl=15
char id=42   x=119   y=109   width=15    height=14    xoffset=-2    yoffset=1     xadvance=11    page=0  chnl=15
char id=43   x=194   y=88    width=18    height=18    xoffset=-1    yoffset=4     xadvance=15    page=0  chnl=15
char id=44   x=243   y=106   width=10    height=12    xoffset=-2    yoffset=12    xadvance=7     page=0  chnl=15
char id=45   x=358   y=102   width=11    height=8     xoffset=-2    yoffset=8     xadvance=8     page=0  chnl=15
char id=46   x=327   y=103   width=8     height=9     xoffset=-1    yoffset=12    xadvance=7     page=0  chnl=15
char id=47   x=420   y=0     width=14    height=23    xoffset=-3    yoffset=1     xadvance=8     page=0  chnl=15
char id=48   x=294   y=66    width=15    height=19    xoffset=-2    yoffset=2     xadvance=11    page=0  chnl=15
char id=49   x=60    y=89    width=14    height=19    xoffset=-1    yoffset=2     xadvance=11    page=0  chnl=15
char id=50   x=310   y=66    width=15    height=19    xoffset=-2    yoffset=2     xadvance=11    page=0  chnl=15
char id=51   x=342   y=65    width=15    height=19    xoffset=-2    yoffset=2     xadvance=11    page=0  chnl=15
char id=52   x=177   y=68    width=16    height=19    xoffset=-2    yoffset=2     xadvance=11    page=0  chnl=15
char id=53   x=45    y=90    width=14    height=19    xoffset=-1    yoffset=2     xadvance=11    page=0  chnl=15
char id=54   x=358   y=65    width=15    height=19    xoffset=-2    yoffset=2     xadvance=11    page=0  chnl=15
char id=55   x=278   y=66    width=15    height=19    xoffset=-2    yoffset=2     xadvance=11    page=0  chnl=15
char id=56   x=374   y=65    width=15    height=19    xoffset=-2    yoffset=2     xadvance=11    page=0  chnl=15
char id=57   x=390   y=65    width=15    height=19    xoffset=-2    yoffset=2     xadvance=11    page=0  chnl=15
char id=58   x=512   y=85    width=8     height=16    xoffset=0     yoffset=5     xadvance=8     page=0  chnl=15
char id=59   x=156   y=88    width=10    height=19    xoffset=-1    yoffset=5     xadvance=8     page=0  chnl=15
char id=60   x=285   y=86    width=16    height=18    xoffset=-1    yoffset=3     xadvance=15    page=0  chnl=15
char id=61   x=226   y=107   width=16    height=12    xoffset=-1    yoffset=7     xadvance=15    page=0  chnl=15
char id=62   x=268   y=86    width=16    height=18    xoffset=-1    yoffset=3     xadvance=15    page=0  chnl=15
char id=63   x=103   y=89    width=13    height=19    xoffset=-2    yoffset=2     xadvance=10    page=0  chnl=15
char id=64   x=205   y=24    width=21    height=21    xoffset=-1    yoffset=2     xadvance=18    page=0  chnl=15
char id=65   x=459   y=45    width=18    height=19    xoffset=-3    yoffset=2     xadvance=12    page=0  chnl=15
char id=66   x=406   y=65    width=15    height=19    xoffset=-1    yoffset=2     xadvance=12    page=0  chnl=15
char id=67   x=37    y=70    width=17    height=19    xoffset=-2    yoffset=2     xadvance=13    page=0  chnl=15
char id=68   x=55    y=69    width=17    height=19    xoffset=-1    yoffset=2     xadvance=14    page=0  chnl=15
char id=69   x=30    y=90    width=14    height=19    xoffset=-1    yoffset=2     xadvance=11    page=0  chnl=15
char id=70   x=15    y=90    width=14    height=19    xoffset=-1    yoffset=2     xadvance=10    page=0  chnl=15
char id=71   x=0     y=70    width=18    height=19    xoffset=-2    yoffset=2     xadvance=14    page=0  chnl=15
char id=72   x=143   y=68    width=16    height=19    xoffset=-1    yoffset=2     xadvance=14    page=0  chnl=15
char id=73   x=143   y=88    width=12    height=19    xoffset=-2    yoffset=2     xadvance=8     page=0  chnl=15
char id=74   x=117   y=89    width=12    height=19    xoffset=-3    yoffset=2     xadvance=8     page=0  chnl=15
char id=75   x=228   y=67    width=16    height=19    xoffset=-1    yoffset=2     xadvance=12    page=0  chnl=15
char id=76   x=0     y=90    width=14    height=19    xoffset=-1    yoffset=2     xadvance=10    page=0  chnl=15
char id=77   x=19    y=70    width=17    height=19    xoffset=-1    yoffset=2     xadvance=15    page=0  chnl=15
char id=78   x=438   y=65    width=15    height=19    xoffset=-1    yoffset=2     xadvance=13    page=0  chnl=15
char id=79   x=402   y=45    width=18    height=19    xoffset=-2    yoffset=2     xadvance=14    page=0  chnl=15
char id=80   x=500   y=65    width=14    height=19    xoffset=-1    yoffset=2     xadvance=11    page=0  chnl=15
char id=81   x=61    y=25    width=18    height=22    xoffset=-2    yoffset=2     xadvance=14    page=0  chnl=15
char id=82   x=91    y=69    width=17    height=19    xoffset=-1    yoffset=2     xadvance=13    page=0  chnl=15
char id=83   x=211   y=68    width=16    height=19    xoffset=-2    yoffset=2     xadvance=12    page=0  chnl=15
char id=84   x=421   y=45    width=18    height=19    xoffset=-3    yoffset=2     xadvance=11    page=0  chnl=15
char id=85   x=422   y=65    width=15    height=19    xoffset=-1    yoffset=2     xadvance=13    page=0  chnl=15
char id=86   x=497   y=45    width=18    height=19    xoffset=-3    yoffset=2     xadvance=12    page=0  chnl=15
char id=87   x=315   y=46    width=22    height=19    xoffset=-2    yoffset=2     xadvance=18    page=0  chnl=15
char id=88   x=126   y=69    width=16    height=19    xoffset=-2    yoffset=2     xadvance=12    page=0  chnl=15
char id=89   x=440   y=45    width=18    height=19    xoffset=-3    yoffset=2     xadvance=11    page=0  chnl=15
char id=90   x=109   y=69    width=16    height=19    xoffset=-2    yoffset=2     xadvance=12    page=0  chnl=15
char id=91   x=504   y=0     width=11    height=23    xoffset=-1    yoffset=1     xadvance=8     page=0  chnl=15
char id=92   x=435   y=0     width=14    height=23    xoffset=-2    yoffset=1     xadvance=8     page=0  chnl=15
char id=93   x=12    y=25    width=11    height=23    xoffset=-1    yoffset=1     xadvance=8     page=0  chnl=15
char id=94   x=194   y=107   width=17    height=13    xoffset=-1    yoffset=2     xadvance=15    page=0  chnl=15
char id=95   x=400   y=102   width=17    height=7     xoffset=-3    yoffset=17    xadvance=11    page=0  chnl=15
char id=96   x=316   y=104   width=10    height=9     xoffset=0     yoffset=1     xadvance=11    page=0  chnl=15
char id=97   x=466   y=85    width=15    height=16    xoffset=-3    yoffset=5     xadvance=11    page=0  chnl=15
char id=98   x=64    y=48    width=15    height=20    xoffset=-2    yoffset=1     xadvance=11    page=0  chnl=15
char id=99   x=0     y=110   width=14    height=16    xoffset=-3    yoffset=5     xadvance=9     page=0  chnl=15
char id=100  x=80    y=48    width=15    height=20    xoffset=-3    yoffset=1     xadvance=11    page=0  chnl=15
char id=101  x=400   y=85    width=16    height=16    xoffset=-3    yoffset=5     xadvance=11    page=0  chnl=15
char id=102  x=187   y=47    width=12    height=20    xoffset=-3    yoffset=1     xadvance=6     page=0  chnl=15
char id=103  x=96    y=48    width=15    height=20    xoffset=-3    yoffset=5     xadvance=11    page=0  chnl=15
char id=104  x=112   y=48    width=14    height=20    xoffset=-2    yoffset=1     xadvance=11    page=0  chnl=15
char id=105  x=176   y=88    width=8     height=19    xoffset=-2    yoffset=2     xadvance=5     page=0  chnl=15
char id=106  x=0     y=25    width=11    height=23    xoffset=-4    yoffset=2     xadvance=6     page=0  chnl=15
char id=107  x=406   y=24    width=16    height=20    xoffset=-2    yoffset=1     xadvance=11    page=0  chnl=15
char id=108  x=235   y=46    width=8     height=20    xoffset=-2    yoffset=1     xadvance=5     page=0  chnl=15
char id=109  x=342   y=85    width=20    height=16    xoffset=-1    yoffset=5     xadvance=18    page=0  chnl=15
char id=110  x=482   y=85    width=14    height=16    xoffset=-2    yoffset=5     xadvance=11    page=0  chnl=15
char id=111  x=383   y=85    width=16    height=16    xoffset=-3    yoffset=5     xadvance=11    page=0  chnl=15
char id=112  x=48    y=48    width=15    height=20    xoffset=-2    yoffset=5     xadvance=11    page=0  chnl=15
char id=113  x=0     y=49    width=15    height=20    xoffset=-3    yoffset=5     xadvance=11    page=0  chnl=15
char id=114  x=30    y=110   width=13    height=16    xoffset=-2    yoffset=5     xadvance=8     page=0  chnl=15
char id=115  x=497   y=85    width=14    height=16    xoffset=-3    yoffset=5     xadvance=9     page=0  chnl=15
char id=116  x=89    y=89    width=13    height=19    xoffset=-3    yoffset=2     xadvance=7     page=0  chnl=15
char id=117  x=15    y=110   width=14    height=16    xoffset=-2    yoffset=5     xadvance=11    page=0  chnl=15
char id=118  x=450   y=85    width=15    height=16    xoffset=-2    yoffset=5     xadvance=11    page=0  chnl=15
char id=119  x=363   y=85    width=19    height=16    xoffset=-2    yoffset=5     xadvance=15    page=0  chnl=15
char id=120  x=434   y=85    width=15    height=16    xoffset=-2    yoffset=5     xadvance=11    page=0  chnl=15
char id=121  x=473   y=24    width=15    height=20    xoffset=-2    yoffset=5     xadvance=11    page=0  chnl=15
char id=122  x=44    y=110   width=13    height=16    xoffset=-2    yoffset=5     xadvance=9     page=0  chnl=15
char id=123  x=450   y=0     width=14    height=23    xoffset=-1    yoffset=1     xadvance=11    page=0  chnl=15
char id=124  x=24    y=25    width=8     height=23    xoffset=0     yoffset=1     xadvance=8     page=0  chnl=15
char id=125  x=390   y=0     width=14    height=23    xoffset=-2    yoffset=1     xadvance=11    page=0  chnl=15
char id=126  x=254   y=105   width=17    height=11    xoffset=-1    yoffset=7     xadvance=15    page=0  chnl=15
char id=160  x=418   y=102   width=7     height=7     xoffset=-3    yoffset=15    xadvance=6     page=0  chnl=15
char id=161  x=185   y=88    width=8     height=19    xoffset=0     yoffset=2     xadvance=7     page=0  chnl=15
char id=162  x=147   y=24    width=14    height=22    xoffset=-1    yoffset=2     xadvance=11    page=0  chnl=15
char id=163  x=454   y=65    width=15    height=19    xoffset=-2    yoffset=2     xadvance=11    page=0  chnl=15
char id=164  x=417   y=85    width=16    height=16    xoffset=-2    yoffset=4     xadvance=11    page=0  chnl=15
char id=165  x=245   y=66    width=16    height=19    xoffset=-2    yoffset=2     xadvance=11    page=0  chnl=15
char id=166  x=33    y=25    width=8     height=23    xoffset=0     yoffset=1     xadvance=8     page=0  chnl=15
char id=167  x=177   y=24    width=14    height=22    xoffset=-1    yoffset=2     xadvance=11    page=0  chnl=15
char id=168  x=345   y=102   width=12    height=8     xoffset=0     yoffset=2     xadvance=11    page=0  chnl=15
char id=169  x=249   y=24    width=21    height=21    xoffset=-2    yoffset=2     xadvance=18    page=0  chnl=15
char id=170  x=105   y=109   width=13    height=15    xoffset=-2    yoffset=2     xadvance=10    page=0  chnl=15
char id=171  x=58    y=110   width=15    height=15    xoffset=-2    yoffset=5     xadvance=12    page=0  chnl=15
char id=172  x=176   y=108   width=17    height=13    xoffset=-1    yoffset=8     xadvance=15    page=0  chnl=15
char id=173  x=370   y=102   width=11    height=8     xoffset=-2    yoffset=8     xadvance=8     page=0  chnl=15
char id=174  x=227   y=24    width=21    height=21    xoffset=-2    yoffset=2     xadvance=18    page=0  chnl=15
char id=175  x=382   y=102   width=17    height=7     xoffset=-3    yoffset=-1    xadvance=11    page=0  chnl=15
char id=176  x=212   y=107   width=13    height=13    xoffset=-2    yoffset=2     xadvance=10    page=0  chnl=15
char id=177  x=232   y=87    width=18    height=18    xoffset=-1    yoffset=2     xadvance=15    page=0  chnl=15
char id=178  x=135   y=109   width=13    height=14    xoffset=-1    yoffset=2     xadvance=10    page=0  chnl=15
char id=179  x=149   y=108   width=13    height=14    xoffset=-1    yoffset=2     xadvance=10    page=0  chnl=15
char id=180  x=305   y=104   width=10    height=9     xoffset=2     yoffset=1     xadvance=11    page=0  chnl=15
char id=181  x=505   y=24    width=15    height=20    xoffset=-2    yoffset=5     xadvance=12    page=0  chnl=15
char id=182  x=99    y=25    width=15    height=22    xoffset=-2    yoffset=2     xadvance=11    page=0  chnl=15
char id=183  x=336   y=103   width=8     height=9     xoffset=-1    yoffset=8     xadvance=7     page=0  chnl=15
char id=184  x=293   y=105   width=11    height=10    xoffset=0     yoffset=15    xadvance=11    page=0  chnl=15
char id=185  x=163   y=108   width=12    height=14    xoffset=0     yoffset=2     xadvance=10    page=0  chnl=15
char id=186  x=90    y=109   width=14    height=15    xoffset=-2    yoffset=2     xadvance=10    page=0  chnl=15
char id=187  x=74    y=109   width=15    height=15    xoffset=-1    yoffset=5     xadvance=12    page=0  chnl=15
char id=188  x=338   y=45    width=21    height=19    xoffset=-2    yoffset=2     xadvance=18    page=0  chnl=15
char id=189  x=292   y=46    width=22    height=19    xoffset=-2    yoffset=2     xadvance=18    page=0  chnl=15
char id=190  x=360   y=45    width=21    height=19    xoffset=-2    yoffset=2     xadvance=18    page=0  chnl=15
char id=191  x=75    y=89    width=13    height=19    xoffset=-2    yoffset=2     xadvance=10    page=0  chnl=15
char id=192  x=167   y=0     width=18    height=23    xoffset=-3    yoffset=-2    xadvance=12    page=0  chnl=15
char id=193  x=205   y=0     width=18    height=23    xoffset=-3    yoffset=-2    xadvance=12    page=0  chnl=15
char id=194  x=224   y=0     width=18    height=23    xoffset=-3    yoffset=-2    xadvance=12    page=0  chnl=15
char id=195  x=38    y=0     width=18    height=24    xoffset=-3    yoffset=-3    xadvance=12    page=0  chnl=15
char id=196  x=80    y=25    width=18    height=22    xoffset=-3    yoffset=-1    xadvance=12    page=0  chnl=15
char id=197  x=0     y=0     width=18    height=24    xoffset=-3    yoffset=-3    xadvance=12    page=0  chnl=15
char id=198  x=244   y=46    width=23    height=19    xoffset=-3    yoffset=2     xadvance=18    page=0  chnl=15
char id=199  x=262   y=0     width=17    height=23    xoffset=-2    yoffset=2     xadvance=13    page=0  chnl=15
char id=200  x=405   y=0     width=14    height=23    xoffset=-1    yoffset=-2    xadvance=11    page=0  chnl=15
char id=201  x=375   y=0     width=14    height=23    xoffset=-1    yoffset=-2    xadvance=11    page=0  chnl=15
char id=202  x=360   y=0     width=14    height=23    xoffset=-1    yoffset=-2    xadvance=11    page=0  chnl=15
char id=203  x=162   y=24    width=14    height=22    xoffset=-1    yoffset=-1    xadvance=11    page=0  chnl=15
char id=204  x=465   y=0     width=12    height=23    xoffset=-2    yoffset=-2    xadvance=8     page=0  chnl=15
char id=205  x=491   y=0     width=12    height=23    xoffset=-2    yoffset=-2    xadvance=8     page=0  chnl=15
char id=206  x=478   y=0     width=12    height=23    xoffset=-2    yoffset=-2    xadvance=8     page=0  chnl=15
char id=207  x=192   y=24    width=12    height=22    xoffset=-2    yoffset=-1    xadvance=8     page=0  chnl=15
char id=208  x=382   y=45    width=19    height=19    xoffset=-3    yoffset=2     xadvance=14    page=0  chnl=15
char id=209  x=57    y=0     width=15    height=24    xoffset=-1    yoffset=-3    xadvance=13    page=0  chnl=15
char id=210  x=148   y=0     width=18    height=23    xoffset=-2    yoffset=-2    xadvance=14    page=0  chnl=15
char id=211  x=243   y=0     width=18    height=23    xoffset=-2    yoffset=-2    xadvance=14    page=0  chnl=15
char id=212  x=129   y=0     width=18    height=23    xoffset=-2    yoffset=-2    xadvance=14    page=0  chnl=15
char id=213  x=19    y=0     width=18    height=24    xoffset=-2    yoffset=-3    xadvance=14    page=0  chnl=15
char id=214  x=42    y=25    width=18    height=22    xoffset=-2    yoffset=-1    xadvance=14    page=0  chnl=15
char id=215  x=302   y=86    width=16    height=17    xoffset=-1    yoffset=4     xadvance=15    page=0  chnl=15
char id=216  x=271   y=24    width=18    height=21    xoffset=-2    yoffset=1     xadvance=14    page=0  chnl=15
char id=217  x=328   y=0     width=15    height=23    xoffset=-1    yoffset=-2    xadvance=13    page=0  chnl=15
char id=218  x=312   y=0     width=15    height=23    xoffset=-1    yoffset=-2    xadvance=13    page=0  chnl=15
char id=219  x=296   y=0     width=15    height=23    xoffset=-1    yoffset=-2    xadvance=13    page=0  chnl=15
char id=220  x=131   y=24    width=15    height=22    xoffset=-1    yoffset=-1    xadvance=13    page=0  chnl=15
char id=221  x=186   y=0     width=18    height=23    xoffset=-3    yoffset=-2    xadvance=11    page=0  chnl=15
char id=222  x=470   y=65    width=14    height=19    xoffset=-1    yoffset=2     xadvance=11    page=0  chnl=15
char id=223  x=457   y=24    width=15    height=20    xoffset=-2    yoffset=1     xadvance=11    page=0  chnl=15
char id=224  x=16    y=49    width=15    height=20    xoffset=-3    yoffset=1     xadvance=11    page=0  chnl=15
char id=225  x=489   y=24    width=15    height=20    xoffset=-3    yoffset=1     xadvance=11    page=0  chnl=15
char id=226  x=32    y=49    width=15    height=20    xoffset=-3    yoffset=1     xadvance=11    page=0  chnl=15
char id=227  x=307   y=24    width=15    height=21    xoffset=-3    yoffset=0     xadvance=11    page=0  chnl=15
char id=228  x=326   y=66    width=15    height=19    xoffset=-3    yoffset=2     xadvance=11    page=0  chnl=15
char id=229  x=280   y=0     width=15    height=23    xoffset=-3    yoffset=-2    xadvance=11    page=0  chnl=15
char id=230  x=319   y=86    width=22    height=16    xoffset=-3    yoffset=5     xadvance=17    page=0  chnl=15
char id=231  x=172   y=47    width=14    height=20    xoffset=-3    yoffset=5     xadvance=9     page=0  chnl=15
char id=232  x=389   y=24    width=16    height=20    xoffset=-3    yoffset=1     xadvance=11    page=0  chnl=15
char id=233  x=423   y=24    width=16    height=20    xoffset=-3    yoffset=1     xadvance=11    page=0  chnl=15
char id=234  x=440   y=24    width=16    height=20    xoffset=-3    yoffset=1     xadvance=11    page=0  chnl=15
char id=235  x=160   y=68    width=16    height=19    xoffset=-3    yoffset=2     xadvance=11    page=0  chnl=15
char id=236  x=213   y=46    width=10    height=20    xoffset=-3    yoffset=1     xadvance=5     page=0  chnl=15
char id=237  x=224   y=46    width=10    height=20    xoffset=-2    yoffset=1     xadvance=5     page=0  chnl=15
char id=238  x=200   y=47    width=12    height=20    xoffset=-4    yoffset=1     xadvance=5     page=0  chnl=15
char id=239  x=130   y=89    width=12    height=19    xoffset=-4    yoffset=2     xadvance=5     page=0  chnl=15
char id=240  x=262   y=66    width=15    height=19    xoffset=-2    yoffset=2     xadvance=11    page=0  chnl=15
char id=241  x=323   y=24    width=14    height=21    xoffset=-2    yoffset=0     xadvance=11    page=0  chnl=15
char id=242  x=355   y=24    width=16    height=20    xoffset=-3    yoffset=1     xadvance=11    page=0  chnl=15
char id=243  x=372   y=24    width=16    height=20    xoffset=-3    yoffset=1     xadvance=11    page=0  chnl=15
char id=244  x=338   y=24    width=16    height=20    xoffset=-3    yoffset=1     xadvance=11    page=0  chnl=15
char id=245  x=290   y=24    width=16    height=21    xoffset=-3    yoffset=0     xadvance=11    page=0  chnl=15
char id=246  x=194   y=68    width=16    height=19    xoffset=-3    yoffset=2     xadvance=11    page=0  chnl=15
char id=247  x=213   y=88    width=18    height=18    xoffset=-2    yoffset=4     xadvance=15    page=0  chnl=15
char id=248  x=251   y=86    width=16    height=18    xoffset=-3    yoffset=4     xadvance=11    page=0  chnl=15
char id=249  x=127   y=48    width=14    height=20    xoffset=-2    yoffset=1     xadvance=11    page=0  chnl=15
char id=250  x=142   y=47    width=14    height=20    xoffset=-2    yoffset=1     xadvance=11    page=0  chnl=15
char id=251  x=157   y=47    width=14    height=20    xoffset=-2    yoffset=1     xadvance=11    page=0  chnl=15
char id=252  x=485   y=65    width=14    height=19    xoffset=-2    yoffset=2     xadvance=11    page=0  chnl=15
char id=253  x=89    y=0     width=15    height=24    xoffset=-2    yoffset=1     xadvance=11    page=0  chnl=15
char id=254  x=73    y=0     width=15    height=24    xoffset=-2    yoffset=1     xadvance=11    page=0  chnl=15
char id=255  x=344   y=0     width=15    height=23    xoffset=-2    yoffset=2     xadvance=11    page=0  chnl=15
kernings count=140
kerning first=39  second=65  amount=-1  
kerning first=39  second=198 amount=-1  
kerning first=45  second=74  amount=-1  
kerning first=45  second=84  amount=-1  
kerning first=45  second=88  amount=-1  
kerning first=45  second=89  amount=-1  
kerning first=46  second=44  amount=-1  
kerning first=46  second=45  amount=-1  
kerning first=65  second=84  amount=-1  
kerning first=65  second=86  amount=-1  
kerning first=65  second=89  amount=-1  
kerning first=66  second=84  amount=-1  
kerning first=70  second=44  amount=-3  
kerning first=70  second=46  amount=-3  
kerning first=70  second=58  amount=-1  
kerning first=70  second=63  amount=1   
kerning first=70  second=65  amount=-1  
kerning first=70  second=97  amount=-1  
kerning first=70  second=198 amount=-1  
kerning first=70  second=230 amount=-1  
kerning first=75  second=45  amount=-1  
kerning first=75  second=97  amount=-1  
kerning first=75  second=101 amount=-1  
kerning first=75  second=111 amount=-1  
kerning first=75  second=118 amount=-1  
kerning first=75  second=119 amount=-1  
kerning first=75  second=121 amount=-1  
kerning first=75  second=230 amount=-1  
kerning first=75  second=248 amount=-1  
kerning first=76  second=39  amount=-1  
kerning first=76  second=45  amount=-1  
kerning first=76  second=74  amount=1   
kerning first=76  second=84  amount=-2  
kerning first=76  second=86  amount=-1  
kerning first=76  second=87  amount=-1  
kerning first=76  second=89  amount=-1  
kerning first=76  second=118 amount=-1  
kerning first=76  second=121 amount=-1  
kerning first=80  second=44  amount=-3  
kerning first=80  second=46  amount=-3  
kerning first=80  second=198 amount=-1  
kerning first=82  second=45  amount=-1  
kerning first=82  second=84  amount=-1  
kerning first=84  second=44  amount=-3  
kerning first=84  second=45  amount=-1  
kerning first=84  second=46  amount=-3  
kerning first=84  second=58  amount=-2  
kerning first=84  second=63  amount=1   
kerning first=84  second=65  amount=-1  
kerning first=84  second=84  amount=-1  
kerning first=84  second=97  amount=-2  
kerning first=84  second=99  amount=-2  
kerning first=84  second=101 amount=-2  
kerning first=84  second=103 amount=-2  
kerning first=84  second=111 amount=-2  
kerning first=84  second=114 amount=-2  
kerning first=84  second=115 amount=-2  
kerning first=84  second=117 amount=-2  
kerning first=84  second=118 amount=-2  
kerning first=84  second=119 amount=-2  
kerning first=84  second=121 amount=-2  
kerning first=84  second=122 amount=-2  
kerning first=84  second=198 amount=-1  
kerning first=84  second=230 amount=-2  
kerning first=84  second=248 amount=-2  
kerning first=86  second=44  amount=-3  
kerning first=86  second=46  amount=-3  
kerning first=86  second=58  amount=-1  
kerning first=86  second=65  amount=-1  
kerning first=86  second=97  amount=-1  
kerning first=86  second=101 amount=-1  
kerning first=86  second=111 amount=-1  
kerning first=86  second=117 amount=-1  
kerning first=86  second=121 amount=-1  
kerning first=86  second=198 amount=-1  
kerning first=86  second=230 amount=-1  
kerning first=86  second=248 amount=-1  
kerning first=87  second=44  amount=-3  
kerning first=87  second=46  amount=-2  
kerning first=87  second=58  amount=-1  
kerning first=87  second=97  amount=-1  
kerning first=87  second=101 amount=-1  
kerning first=87  second=111 amount=-1  
kerning first=87  second=114 amount=-1  
kerning first=87  second=117 amount=-1  
kerning first=87  second=121 amount=-1  
kerning first=87  second=198 amount=-1  
kerning first=87  second=230 amount=-1  
kerning first=87  second=248 amount=-1  
kerning first=88  second=45  amount=-1  
kerning first=88  second=101 amount=-1  
kerning first=88  second=111 amount=-1  
kerning first=88  second=121 amount=-1  
kerning first=88  second=248 amount=-1  
kerning first=89  second=44  amount=-3  
kerning first=89  second=45  amount=-1  
kerning first=89  second=46  amount=-3  
kerning first=89  second=58  amount=-2  
kerning first=89  second=65  amount=-1  
kerning first=89  second=97  amount=-1  
kerning first=89  second=100 amount=-1  
kerning first=89  second=101 amount=-1  
kerning first=89  second=103 amount=-1  
kerning first=89  second=109 amount=-1  
kerning first=89  second=110 amount=-1  
kerning first=89  second=111 amount=-1  
kerning first=89  second=112 amount=-1  
kerning first=89  second=113 amount=-1  
kerning first=89  second=114 amount=-1  
kerning first=89  second=115 amount=-1  
kerning first=89  second=117 amount=-1  
kerning first=89  second=118 amount=-1  
kerning first=89  second=198 amount=-1  
kerning first=89  second=230 amount=-1  
kerning first=89  second=248 amount=-1  
kerning first=90  second=45  amount=-1  
kerning first=90  second=101 amount=-1  
kerning first=90  second=111 amount=-1  
kerning first=90  second=121 amount=-1  
kerning first=90  second=248 amount=-1  
kerning first=99  second=84  amount=-1  
kerning first=101 second=84  amount=-1  
kerning first=102 second=34  amount=1   
kerning first=102 second=39  amount=1   
kerning first=102 second=41  amount=1   
kerning first=102 second=44  amount=-1  
kerning first=102 second=46  amount=-1  
kerning first=102 second=63  amount=1   
kerning first=102 second=92  amount=1   
kerning first=102 second=93  amount=1   
kerning first=102 second=125 amount=1   
kerning first=107 second=45  amount=-1  
kerning first=114 second=44  amount=-3  
kerning first=114 second=46  amount=-3  
kerning first=118 second=44  amount=-2  
kerning first=118 second=46  amount=-2  
kerning first=119 second=44  amount=-1  
kerning first=119 second=46  amount=-1  
kerning first=121 second=44  amount=-2  
kerning first=121 second=46  amount=-2  
