info face="Berlin Sans FB" size=50 bold=0 italic=0 charset="" unicode=1 stretchH=100 smooth=1 aa=1 padding=0,0,0,0 spacing=1,1 outline=1
common lineHeight=50 base=41 scaleW=523 scaleH=523 pages=1 packed=0 alphaChnl=1 redChnl=0 greenChnl=0 blueChnl=0
page id=0 file="LevelScoreCounter_0.png"
chars count=191
char id=32   x=518   y=80    width=3     height=3     xoffset=-1    yoffset=40    xadvance=11    page=0  chnl=15
char id=33   x=470   y=151   width=7     height=33    xoffset=2     yoffset=9     xadvance=10    page=0  chnl=15
char id=34   x=470   y=241   width=12    height=13    xoffset=1     yoffset=8     xadvance=14    page=0  chnl=15
char id=35   x=474   y=43    width=31    height=36    xoffset=0     yoffset=8     xadvance=30    page=0  chnl=15
char id=36   x=0     y=89    width=19    height=36    xoffset=1     yoffset=11    xadvance=20    page=0  chnl=15
char id=37   x=409   y=187   width=33    height=29    xoffset=0     yoffset=13    xadvance=33    page=0  chnl=15
char id=38   x=70    y=86    width=32    height=35    xoffset=0     yoffset=8     xadvance=31    page=0  chnl=15
char id=39   x=516   y=150   width=6     height=12    xoffset=1     yoffset=9     xadvance=8     page=0  chnl=15
char id=40   x=140   y=44    width=15    height=41    xoffset=1     yoffset=8     xadvance=16    page=0  chnl=15
char id=41   x=156   y=44    width=15    height=41    xoffset=-1    yoffset=8     xadvance=16    page=0  chnl=15
char id=42   x=432   y=242   width=16    height=17    xoffset=0     yoffset=10    xadvance=16    page=0  chnl=15
char id=43   x=213   y=252   width=19    height=21    xoffset=0     yoffset=17    xadvance=18    page=0  chnl=15
char id=44   x=483   y=241   width=10    height=13    xoffset=-1    yoffset=34    xadvance=9     page=0  chnl=15
char id=45   x=78    y=279   width=17    height=9     xoffset=0     yoffset=23    xadvance=17    page=0  chnl=15
char id=46   x=105   y=278   width=8     height=9     xoffset=1     yoffset=33    xadvance=10    page=0  chnl=15
char id=47   x=506   y=43    width=13    height=36    xoffset=0     yoffset=9     xadvance=13    page=0  chnl=15
char id=48   x=25    y=228   width=27    height=28    xoffset=0     yoffset=14    xadvance=27    page=0  chnl=15
char id=49   x=502   y=184   width=13    height=29    xoffset=-1    yoffset=13    xadvance=13    page=0  chnl=15
char id=50   x=0     y=228   width=24    height=29    xoffset=-1    yoffset=14    xadvance=22    page=0  chnl=15
char id=51   x=170   y=223   width=21    height=28    xoffset=0     yoffset=14    xadvance=21    page=0  chnl=15
char id=52   x=53    y=228   width=24    height=28    xoffset=0     yoffset=14    xadvance=23    page=0  chnl=15
char id=53   x=192   y=223   width=21    height=28    xoffset=-1    yoffset=14    xadvance=21    page=0  chnl=15
char id=54   x=101   y=225   width=22    height=28    xoffset=1     yoffset=14    xadvance=23    page=0  chnl=15
char id=55   x=214   y=223   width=21    height=28    xoffset=-1    yoffset=14    xadvance=20    page=0  chnl=15
char id=56   x=78    y=225   width=22    height=28    xoffset=-1    yoffset=14    xadvance=21    page=0  chnl=15
char id=57   x=124   y=224   width=22    height=28    xoffset=0     yoffset=14    xadvance=23    page=0  chnl=15
char id=58   x=300   y=246   width=8     height=20    xoffset=1     yoffset=22    xadvance=10    page=0  chnl=15
char id=59   x=376   y=218   width=10    height=25    xoffset=-1    yoffset=22    xadvance=9     page=0  chnl=15
char id=60   x=196   y=252   width=16    height=23    xoffset=0     yoffset=17    xadvance=16    page=0  chnl=15
char id=61   x=449   y=241   width=20    height=13    xoffset=0     yoffset=21    xadvance=20    page=0  chnl=15
char id=62   x=179   y=252   width=16    height=23    xoffset=0     yoffset=17    xadvance=16    page=0  chnl=15
char id=63   x=411   y=117   width=18    height=34    xoffset=0     yoffset=8     xadvance=18    page=0  chnl=15
char id=64   x=435   y=82    width=27    height=34    xoffset=0     yoffset=8     xadvance=28    page=0  chnl=15
char id=65   x=310   y=83    width=32    height=34    xoffset=-1    yoffset=8     xadvance=30    page=0  chnl=15
char id=66   x=212   y=156   width=25    height=33    xoffset=2     yoffset=9     xadvance=27    page=0  chnl=15
char id=67   x=406   y=82    width=28    height=34    xoffset=0     yoffset=8     xadvance=27    page=0  chnl=15
char id=68   x=40    y=161   width=29    height=33    xoffset=2     yoffset=9     xadvance=31    page=0  chnl=15
char id=69   x=300   y=119   width=22    height=34    xoffset=2     yoffset=9     xadvance=24    page=0  chnl=15
char id=70   x=182   y=85    width=22    height=35    xoffset=2     yoffset=8     xadvance=24    page=0  chnl=15
char id=71   x=375   y=83    width=30    height=34    xoffset=0     yoffset=8     xadvance=30    page=0  chnl=15
char id=72   x=100   y=157   width=28    height=33    xoffset=2     yoffset=9     xadvance=32    page=0  chnl=15
char id=73   x=462   y=152   width=7     height=33    xoffset=2     yoffset=9     xadvance=11    page=0  chnl=15
char id=74   x=20    y=89    width=11    height=36    xoffset=-1    yoffset=9     xadvance=12    page=0  chnl=15
char id=75   x=491   y=80    width=26    height=34    xoffset=2     yoffset=8     xadvance=27    page=0  chnl=15
char id=76   x=323   y=118   width=21    height=34    xoffset=2     yoffset=9     xadvance=23    page=0  chnl=15
char id=77   x=343   y=83    width=31    height=34    xoffset=2     yoffset=9     xadvance=35    page=0  chnl=15
char id=78   x=70    y=158   width=29    height=33    xoffset=2     yoffset=9     xadvance=32    page=0  chnl=15
char id=79   x=276   y=84    width=33    height=34    xoffset=0     yoffset=8     xadvance=33    page=0  chnl=15
char id=80   x=103   y=86    width=26    height=35    xoffset=2     yoffset=8     xadvance=28    page=0  chnl=15
char id=81   x=290   y=43    width=33    height=39    xoffset=0     yoffset=8     xadvance=33    page=0  chnl=15
char id=82   x=130   y=86    width=26    height=35    xoffset=2     yoffset=8     xadvance=27    page=0  chnl=15
char id=83   x=361   y=153   width=19    height=33    xoffset=2     yoffset=9     xadvance=21    page=0  chnl=15
char id=84   x=105   y=122   width=24    height=34    xoffset=0     yoffset=8     xadvance=23    page=0  chnl=15
char id=85   x=185   y=157   width=26    height=33    xoffset=2     yoffset=9     xadvance=30    page=0  chnl=15
char id=86   x=129   y=157   width=28    height=33    xoffset=0     yoffset=9     xadvance=28    page=0  chnl=15
char id=87   x=0     y=161   width=39    height=33    xoffset=0     yoffset=9     xadvance=39    page=0  chnl=15
char id=88   x=158   y=157   width=26    height=33    xoffset=0     yoffset=9     xadvance=26    page=0  chnl=15
char id=89   x=238   y=156   width=25    height=33    xoffset=0     yoffset=9     xadvance=26    page=0  chnl=15
char id=90   x=277   y=119   width=22    height=34    xoffset=0     yoffset=9     xadvance=23    page=0  chnl=15
char id=91   x=275   y=43    width=14    height=40    xoffset=2     yoffset=9     xadvance=16    page=0  chnl=15
char id=92   x=228   y=85    width=13    height=35    xoffset=0     yoffset=9     xadvance=13    page=0  chnl=15
char id=93   x=260   y=43    width=14    height=40    xoffset=0     yoffset=9     xadvance=16    page=0  chnl=15
char id=94   x=327   y=246   width=21    height=18    xoffset=0     yoffset=18    xadvance=21    page=0  chnl=15
char id=95   x=114   y=278   width=22    height=8     xoffset=-1    yoffset=43    xadvance=20    page=0  chnl=15
char id=96   x=45    y=282   width=13    height=10    xoffset=0     yoffset=8     xadvance=16    page=0  chnl=15
char id=97   x=421   y=217   width=25    height=24    xoffset=0     yoffset=18    xadvance=25    page=0  chnl=15
char id=98   x=130   y=122   width=24    height=34    xoffset=0     yoffset=8     xadvance=25    page=0  chnl=15
char id=99   x=42    y=257   width=18    height=24    xoffset=0     yoffset=18    xadvance=18    page=0  chnl=15
char id=100  x=27    y=126   width=25    height=34    xoffset=0     yoffset=8     xadvance=25    page=0  chnl=15
char id=101  x=0     y=258   width=21    height=24    xoffset=0     yoffset=18    xadvance=22    page=0  chnl=15
char id=102  x=430   y=117   width=17    height=34    xoffset=-3    yoffset=8     xadvance=13    page=0  chnl=15
char id=103  x=385   y=187   width=23    height=30    xoffset=0     yoffset=18    xadvance=23    page=0  chnl=15
char id=104  x=205   y=121   width=23    height=34    xoffset=0     yoffset=8     xadvance=23    page=0  chnl=15
char id=105  x=348   y=187   width=9     height=31    xoffset=0     yoffset=11    xadvance=9     page=0  chnl=15
char id=106  x=461   y=43    width=12    height=37    xoffset=-3    yoffset=11    xadvance=9     page=0  chnl=15
char id=107  x=157   y=86    width=24    height=35    xoffset=0     yoffset=7     xadvance=25    page=0  chnl=15
char id=108  x=452   y=152   width=9     height=33    xoffset=0     yoffset=9     xadvance=9     page=0  chnl=15
char id=109  x=91    y=254   width=37    height=23    xoffset=0     yoffset=19    xadvance=37    page=0  chnl=15
char id=110  x=447   y=216   width=24    height=24    xoffset=0     yoffset=18    xadvance=24    page=0  chnl=15
char id=111  x=472   y=216   width=23    height=24    xoffset=0     yoffset=18    xadvance=23    page=0  chnl=15
char id=112  x=219   y=190   width=24    height=31    xoffset=0     yoffset=18    xadvance=25    page=0  chnl=15
char id=113  x=193   y=191   width=25    height=31    xoffset=0     yoffset=18    xadvance=25    page=0  chnl=15
char id=114  x=61    y=257   width=16    height=24    xoffset=0     yoffset=18    xadvance=15    page=0  chnl=15
char id=115  x=78    y=254   width=12    height=24    xoffset=0     yoffset=18    xadvance=13    page=0  chnl=15
char id=116  x=314   y=188   width=17    height=31    xoffset=-2    yoffset=11    xadvance=15    page=0  chnl=15
char id=117  x=154   y=253   width=24    height=23    xoffset=1     yoffset=19    xadvance=25    page=0  chnl=15
char id=118  x=496   y=215   width=21    height=24    xoffset=0     yoffset=19    xadvance=22    page=0  chnl=15
char id=119  x=387   y=218   width=33    height=24    xoffset=0     yoffset=18    xadvance=33    page=0  chnl=15
char id=120  x=356   y=219   width=19    height=25    xoffset=0     yoffset=18    xadvance=20    page=0  chnl=15
char id=121  x=293   y=188   width=20    height=31    xoffset=0     yoffset=18    xadvance=21    page=0  chnl=15
char id=122  x=22    y=258   width=19    height=24    xoffset=0     yoffset=19    xadvance=19    page=0  chnl=15
char id=123  x=122   y=44    width=17    height=41    xoffset=-1    yoffset=8     xadvance=15    page=0  chnl=15
char id=124  x=434   y=43    width=8     height=38    xoffset=2     yoffset=7     xadvance=11    page=0  chnl=15
char id=125  x=84    y=44    width=18    height=41    xoffset=-2    yoffset=8     xadvance=15    page=0  chnl=15
char id=126  x=494   y=241   width=23    height=11    xoffset=0     yoffset=22    xadvance=22    page=0  chnl=15
char id=160  x=518   y=0     width=3     height=3     xoffset=-1    yoffset=40    xadvance=6     page=0  chnl=15
char id=161  x=478   y=116   width=7     height=34    xoffset=2     yoffset=9     xadvance=10    page=0  chnl=15
char id=162  x=256   y=222   width=15    height=28    xoffset=0     yoffset=14    xadvance=15    page=0  chnl=15
char id=163  x=147   y=224   width=22    height=28    xoffset=0     yoffset=14    xadvance=21    page=0  chnl=15
char id=164  x=129   y=253   width=24    height=23    xoffset=2     yoffset=14    xadvance=28    page=0  chnl=15
char id=165  x=443   y=186   width=31    height=29    xoffset=-2    yoffset=13    xadvance=30    page=0  chnl=15
char id=166  x=0     y=0     width=8     height=45    xoffset=2     yoffset=5     xadvance=11    page=0  chnl=15
char id=167  x=443   y=43    width=17    height=37    xoffset=1     yoffset=8     xadvance=18    page=0  chnl=15
char id=168  x=59    y=282   width=18    height=9     xoffset=-1    yoffset=7     xadvance=16    page=0  chnl=15
char id=169  x=475   y=185   width=26    height=29    xoffset=1     yoffset=9     xadvance=28    page=0  chnl=15
char id=170  x=272   y=220   width=20    height=27    xoffset=0     yoffset=9     xadvance=21    page=0  chnl=15
char id=171  x=366   y=245   width=23    height=17    xoffset=0     yoffset=20    xadvance=23    page=0  chnl=15
char id=172  x=0     y=283   width=17    height=11    xoffset=2     yoffset=23    xadvance=21    page=0  chnl=15
char id=173  x=137   y=277   width=18    height=8     xoffset=0     yoffset=24    xadvance=18    page=0  chnl=15
char id=174  x=358   y=187   width=26    height=30    xoffset=1     yoffset=9     xadvance=28    page=0  chnl=15
char id=175  x=156   y=277   width=17    height=8     xoffset=0     yoffset=10    xadvance=16    page=0  chnl=15
char id=176  x=349   y=246   width=16    height=18    xoffset=1     yoffset=9     xadvance=18    page=0  chnl=15
char id=177  x=253   y=251   width=18    height=20    xoffset=1     yoffset=18    xadvance=18    page=0  chnl=15
char id=178  x=233   y=252   width=19    height=21    xoffset=-1    yoffset=13    xadvance=17    page=0  chnl=15
char id=179  x=272   y=248   width=16    height=20    xoffset=0     yoffset=13    xadvance=17    page=0  chnl=15
char id=180  x=31    y=283   width=13    height=10    xoffset=0     yoffset=8     xadvance=16    page=0  chnl=15
char id=181  x=332   y=188   width=15    height=31    xoffset=1     yoffset=19    xadvance=17    page=0  chnl=15
char id=182  x=205   y=85    width=22    height=35    xoffset=1     yoffset=8     xadvance=24    page=0  chnl=15
char id=183  x=96    y=278   width=8     height=9     xoffset=1     yoffset=20    xadvance=10    page=0  chnl=15
char id=184  x=18    y=283   width=12    height=11    xoffset=0     yoffset=40    xadvance=16    page=0  chnl=15
char id=185  x=289   y=248   width=10    height=20    xoffset=0     yoffset=13    xadvance=11    page=0  chnl=15
char id=186  x=236   y=222   width=19    height=28    xoffset=1     yoffset=9     xadvance=21    page=0  chnl=15
char id=187  x=390   y=243   width=23    height=17    xoffset=0     yoffset=20    xadvance=23    page=0  chnl=15
char id=188  x=35    y=195   width=34    height=32    xoffset=0     yoffset=12    xadvance=35    page=0  chnl=15
char id=189  x=0     y=195   width=34    height=32    xoffset=0     yoffset=12    xadvance=35    page=0  chnl=15
char id=190  x=478   y=151   width=37    height=32    xoffset=-1    yoffset=12    xadvance=35    page=0  chnl=15
char id=191  x=400   y=153   width=18    height=33    xoffset=-1    yoffset=9     xadvance=18    page=0  chnl=15
char id=192  x=309   y=0     width=32    height=42    xoffset=-1    yoffset=0     xadvance=30    page=0  chnl=15
char id=193  x=243   y=0     width=32    height=42    xoffset=-1    yoffset=0     xadvance=30    page=0  chnl=15
char id=194  x=276   y=0     width=32    height=42    xoffset=-1    yoffset=0     xadvance=30    page=0  chnl=15
char id=195  x=206   y=44    width=32    height=40    xoffset=-1    yoffset=2     xadvance=30    page=0  chnl=15
char id=196  x=51    y=44    width=32    height=41    xoffset=-1    yoffset=1     xadvance=30    page=0  chnl=15
char id=197  x=324   y=43    width=32    height=39    xoffset=-1    yoffset=4     xadvance=30    page=0  chnl=15
char id=198  x=32    y=87    width=37    height=35    xoffset=0     yoffset=8     xadvance=37    page=0  chnl=15
char id=199  x=111   y=0     width=28    height=43    xoffset=0     yoffset=8     xadvance=27    page=0  chnl=15
char id=200  x=163   y=0     width=22    height=43    xoffset=2     yoffset=0     xadvance=24    page=0  chnl=15
char id=201  x=140   y=0     width=22    height=43    xoffset=2     yoffset=0     xadvance=24    page=0  chnl=15
char id=202  x=186   y=0     width=22    height=43    xoffset=2     yoffset=0     xadvance=24    page=0  chnl=15
char id=203  x=0     y=46    width=22    height=42    xoffset=2     yoffset=1     xadvance=24    page=0  chnl=15
char id=204  x=37    y=44    width=13    height=42    xoffset=-1    yoffset=0     xadvance=11    page=0  chnl=15
char id=205  x=23    y=44    width=13    height=42    xoffset=1     yoffset=0     xadvance=11    page=0  chnl=15
char id=206  x=502   y=0     width=15    height=42    xoffset=-2    yoffset=0     xadvance=11    page=0  chnl=15
char id=207  x=103   y=44    width=18    height=41    xoffset=-3    yoffset=1     xadvance=11    page=0  chnl=15
char id=208  x=486   y=116   width=33    height=33    xoffset=-2    yoffset=9     xadvance=31    page=0  chnl=15
char id=209  x=357   y=43    width=29    height=39    xoffset=2     yoffset=3     xadvance=32    page=0  chnl=15
char id=210  x=43    y=0     width=33    height=43    xoffset=0     yoffset=-1    xadvance=33    page=0  chnl=15
char id=211  x=9     y=0     width=33    height=43    xoffset=0     yoffset=-1    xadvance=33    page=0  chnl=15
char id=212  x=77    y=0     width=33    height=43    xoffset=0     yoffset=-1    xadvance=33    page=0  chnl=15
char id=213  x=172   y=44    width=33    height=40    xoffset=0     yoffset=2     xadvance=33    page=0  chnl=15
char id=214  x=209   y=0     width=33    height=42    xoffset=0     yoffset=0     xadvance=33    page=0  chnl=15
char id=215  x=414   y=243   width=17    height=17    xoffset=0     yoffset=19    xadvance=18    page=0  chnl=15
char id=216  x=242   y=84    width=33    height=34    xoffset=0     yoffset=8     xadvance=33    page=0  chnl=15
char id=217  x=423   y=0     width=26    height=42    xoffset=2     yoffset=0     xadvance=30    page=0  chnl=15
char id=218  x=396   y=0     width=26    height=42    xoffset=2     yoffset=0     xadvance=30    page=0  chnl=15
char id=219  x=369   y=0     width=26    height=42    xoffset=2     yoffset=0     xadvance=30    page=0  chnl=15
char id=220  x=342   y=0     width=26    height=42    xoffset=2     yoffset=0     xadvance=30    page=0  chnl=15
char id=221  x=450   y=0     width=25    height=42    xoffset=0     yoffset=0     xadvance=26    page=0  chnl=15
char id=222  x=0     y=126   width=26    height=34    xoffset=2     yoffset=9     xadvance=28    page=0  chnl=15
char id=223  x=367   y=118   width=21    height=34    xoffset=1     yoffset=9     xadvance=23    page=0  chnl=15
char id=224  x=53    y=123   width=25    height=34    xoffset=0     yoffset=8     xadvance=25    page=0  chnl=15
char id=225  x=264   y=154   width=25    height=33    xoffset=0     yoffset=9     xadvance=25    page=0  chnl=15
char id=226  x=79    y=122   width=25    height=34    xoffset=0     yoffset=8     xadvance=25    page=0  chnl=15
char id=227  x=167   y=191   width=25    height=31    xoffset=0     yoffset=11    xadvance=25    page=0  chnl=15
char id=228  x=70    y=192   width=25    height=32    xoffset=0     yoffset=10    xadvance=25    page=0  chnl=15
char id=229  x=387   y=43    width=25    height=38    xoffset=0     yoffset=4     xadvance=25    page=0  chnl=15
char id=230  x=293   y=220   width=38    height=25    xoffset=0     yoffset=18    xadvance=39    page=0  chnl=15
char id=231  x=419   y=152   width=18    height=33    xoffset=0     yoffset=18    xadvance=18    page=0  chnl=15
char id=232  x=345   y=118   width=21    height=34    xoffset=0     yoffset=8     xadvance=22    page=0  chnl=15
char id=233  x=339   y=153   width=21    height=33    xoffset=0     yoffset=9     xadvance=22    page=0  chnl=15
char id=234  x=389   y=118   width=21    height=34    xoffset=0     yoffset=8     xadvance=22    page=0  chnl=15
char id=235  x=145   y=191   width=21    height=32    xoffset=0     yoffset=10    xadvance=22    page=0  chnl=15
char id=236  x=464   y=116   width=13    height=34    xoffset=-3    yoffset=8     xadvance=10    page=0  chnl=15
char id=237  x=438   y=152   width=13    height=33    xoffset=0     yoffset=9     xadvance=10    page=0  chnl=15
char id=238  x=448   y=117   width=15    height=34    xoffset=-3    yoffset=8     xadvance=10    page=0  chnl=15
char id=239  x=381   y=153   width=18    height=33    xoffset=-4    yoffset=9     xadvance=10    page=0  chnl=15
char id=240  x=463   y=81    width=27    height=34    xoffset=0     yoffset=8     xadvance=25    page=0  chnl=15
char id=241  x=244   y=190   width=24    height=31    xoffset=0     yoffset=11    xadvance=24    page=0  chnl=15
char id=242  x=229   y=121   width=23    height=34    xoffset=0     yoffset=8     xadvance=23    page=0  chnl=15
char id=243  x=315   y=154   width=23    height=33    xoffset=0     yoffset=9     xadvance=23    page=0  chnl=15
char id=244  x=253   y=119   width=23    height=34    xoffset=0     yoffset=8     xadvance=23    page=0  chnl=15
char id=245  x=269   y=188   width=23    height=31    xoffset=0     yoffset=11    xadvance=23    page=0  chnl=15
char id=246  x=121   y=191   width=23    height=32    xoffset=0     yoffset=10    xadvance=23    page=0  chnl=15
char id=247  x=309   y=246   width=17    height=19    xoffset=1     yoffset=16    xadvance=18    page=0  chnl=15
char id=248  x=332   y=220   width=23    height=25    xoffset=0     yoffset=17    xadvance=23    page=0  chnl=15
char id=249  x=155   y=122   width=24    height=34    xoffset=1     yoffset=8     xadvance=25    page=0  chnl=15
char id=250  x=290   y=154   width=24    height=33    xoffset=1     yoffset=9     xadvance=25    page=0  chnl=15
char id=251  x=180   y=122   width=24    height=34    xoffset=1     yoffset=8     xadvance=25    page=0  chnl=15
char id=252  x=96    y=192   width=24    height=32    xoffset=1     yoffset=10    xadvance=25    page=0  chnl=15
char id=253  x=239   y=43    width=20    height=40    xoffset=0     yoffset=9     xadvance=21    page=0  chnl=15
char id=254  x=476   y=0     width=25    height=42    xoffset=0     yoffset=8     xadvance=26    page=0  chnl=15
char id=255  x=413   y=43    width=20    height=38    xoffset=0     yoffset=11    xadvance=21    page=0  chnl=15
