info face="Brush Script MT" size=35 bold=1 italic=0 charset="" unicode=1 stretchH=100 smooth=1 aa=1 padding=0,0,0,0 spacing=1,1 outline=2
common lineHeight=35 base=25 scaleW=523 scaleH=523 pages=1 packed=0 alphaChnl=1 redChnl=0 greenChnl=0 blueChnl=0
page id=0 file="LevelNumberFont_0.png"
chars count=10
char id=48   x=22    y=0     width=19    height=23    xoffset=-2    yoffset=4     xadvance=13    page=0  chnl=15
char id=49   x=62    y=0     width=14    height=23    xoffset=-1    yoffset=5     xadvance=9     page=0  chnl=15
char id=50   x=120   y=0     width=19    height=22    xoffset=-2    yoffset=5     xadvance=13    page=0  chnl=15
char id=51   x=160   y=0     width=22    height=21    xoffset=-3    yoffset=6     xadvance=16    page=0  chnl=15
char id=52   x=99    y=0     width=20    height=22    xoffset=-3    yoffset=5     xadvance=13    page=0  chnl=15
char id=53   x=77    y=0     width=21    height=22    xoffset=-4    yoffset=5     xadvance=13    page=0  chnl=15
char id=54   x=183   y=0     width=19    height=21    xoffset=-2    yoffset=6     xadvance=13    page=0  chnl=15
char id=55   x=140   y=0     width=19    height=22    xoffset=0     yoffset=5     xadvance=13    page=0  chnl=15
char id=56   x=0     y=0     width=21    height=23    xoffset=-1    yoffset=4     xadvance=14    page=0  chnl=15
char id=57   x=42    y=0     width=19    height=23    xoffset=0     yoffset=4     xadvance=14    page=0  chnl=15
kernings count=0
