info face="Comic Sans MS" size=30 bold=1 italic=0 charset="" unicode=1 stretchH=100 smooth=1 aa=1 padding=0,0,0,0 spacing=1,1 outline=1
common lineHeight=30 base=23 scaleW=523 scaleH=523 pages=1 packed=0 alphaChnl=0 redChnl=3 greenChnl=3 blueChnl=3
page id=0 file="SelectLevelScoreTime_0.png"
chars count=191
char id=32   x=515   y=79    width=3     height=3     xoffset=-1    yoffset=22    xadvance=9     page=0  chnl=15
char id=33   x=360   y=66    width=5     height=18    xoffset=0     yoffset=6     xadvance=5     page=0  chnl=15
char id=34   x=332   y=85    width=8     height=9     xoffset=0     yoffset=6     xadvance=9     page=0  chnl=15
char id=35   x=485   y=24    width=19    height=19    xoffset=-1    yoffset=5     xadvance=18    page=0  chnl=15
char id=36   x=128   y=0     width=15    height=25    xoffset=0     yoffset=3     xadvance=15    page=0  chnl=15
char id=37   x=207   y=67    width=19    height=18    xoffset=-1    yoffset=6     xadvance=17    page=0  chnl=15
char id=38   x=179   y=26    width=16    height=20    xoffset=-1    yoffset=6     xadvance=14    page=0  chnl=15
char id=39   x=341   y=85    width=4     height=9     xoffset=2     yoffset=6     xadvance=9     page=0  chnl=15
char id=40   x=68    y=26    width=9     height=22    xoffset=0     yoffset=6     xadvance=8     page=0  chnl=15
char id=41   x=58    y=26    width=9     height=22    xoffset=-1    yoffset=6     xadvance=8     page=0  chnl=15
char id=42   x=283   y=86    width=13    height=10    xoffset=-1    yoffset=6     xadvance=11    page=0  chnl=15
char id=43   x=170   y=87    width=12    height=12    xoffset=0     yoffset=11    xadvance=13    page=0  chnl=15
char id=44   x=422   y=82    width=6     height=7     xoffset=1     yoffset=21    xadvance=9     page=0  chnl=15
char id=45   x=500   y=79    width=10    height=4     xoffset=1     yoffset=16    xadvance=13    page=0  chnl=15
char id=46   x=447   y=81    width=5     height=5     xoffset=2     yoffset=20    xadvance=9     page=0  chnl=15
char id=47   x=93    y=69    width=12    height=19    xoffset=-1    yoffset=6     xadvance=11    page=0  chnl=15
char id=48   x=446   y=44    width=13    height=19    xoffset=0     yoffset=6     xadvance=13    page=0  chnl=15
char id=49   x=348   y=66    width=11    height=18    xoffset=1     yoffset=6     xadvance=13    page=0  chnl=15
char id=50   x=271   y=67    width=12    height=18    xoffset=1     yoffset=6     xadvance=13    page=0  chnl=15
char id=51   x=28    y=70    width=12    height=19    xoffset=1     yoffset=6     xadvance=13    page=0  chnl=15
char id=52   x=288   y=46    width=14    height=19    xoffset=-1    yoffset=6     xadvance=13    page=0  chnl=15
char id=53   x=432   y=45    width=13    height=19    xoffset=0     yoffset=6     xadvance=13    page=0  chnl=15
char id=54   x=418   y=46    width=13    height=19    xoffset=0     yoffset=6     xadvance=13    page=0  chnl=15
char id=55   x=227   y=67    width=14    height=18    xoffset=0     yoffset=6     xadvance=13    page=0  chnl=15
char id=56   x=404   y=46    width=13    height=19    xoffset=0     yoffset=6     xadvance=13    page=0  chnl=15
char id=57   x=257   y=67    width=13    height=18    xoffset=0     yoffset=6     xadvance=13    page=0  chnl=15
char id=58   x=277   y=86    width=5     height=11    xoffset=2     yoffset=11    xadvance=9     page=0  chnl=15
char id=59   x=441   y=65    width=6     height=15    xoffset=1     yoffset=11    xadvance=9     page=0  chnl=15
char id=60   x=239   y=86    width=9     height=11    xoffset=1     yoffset=11    xadvance=13    page=0  chnl=15
char id=61   x=358   y=85    width=11    height=8     xoffset=1     yoffset=13    xadvance=13    page=0  chnl=15
char id=62   x=183   y=87    width=10    height=12    xoffset=2     yoffset=11    xadvance=13    page=0  chnl=15
char id=63   x=297   y=66    width=12    height=18    xoffset=0     yoffset=6     xadvance=12    page=0  chnl=15
char id=64   x=122   y=26    width=20    height=20    xoffset=0     yoffset=5     xadvance=20    page=0  chnl=15
char id=65   x=178   y=47    width=15    height=19    xoffset=0     yoffset=6     xadvance=15    page=0  chnl=15
char id=66   x=303   y=46    width=14    height=19    xoffset=-1    yoffset=6     xadvance=13    page=0  chnl=15
char id=67   x=318   y=46    width=14    height=19    xoffset=0     yoffset=6     xadvance=13    page=0  chnl=15
char id=68   x=194   y=47    width=15    height=19    xoffset=0     yoffset=6     xadvance=15    page=0  chnl=15
char id=69   x=376   y=46    width=13    height=19    xoffset=0     yoffset=6     xadvance=13    page=0  chnl=15
char id=70   x=362   y=46    width=13    height=19    xoffset=0     yoffset=6     xadvance=13    page=0  chnl=15
char id=71   x=95    y=49    width=16    height=19    xoffset=-1    yoffset=6     xadvance=14    page=0  chnl=15
char id=72   x=226   y=47    width=15    height=19    xoffset=1     yoffset=6     xadvance=16    page=0  chnl=15
char id=73   x=14    y=70    width=13    height=19    xoffset=-1    yoffset=6     xadvance=11    page=0  chnl=15
char id=74   x=210   y=47    width=15    height=19    xoffset=-1    yoffset=6     xadvance=14    page=0  chnl=15
char id=75   x=488   y=44    width=13    height=19    xoffset=0     yoffset=6     xadvance=13    page=0  chnl=15
char id=76   x=460   y=44    width=13    height=19    xoffset=0     yoffset=6     xadvance=12    page=0  chnl=15
char id=77   x=0     y=50    width=19    height=19    xoffset=-1    yoffset=6     xadvance=19    page=0  chnl=15
char id=78   x=59    y=49    width=17    height=19    xoffset=0     yoffset=6     xadvance=17    page=0  chnl=15
char id=79   x=77    y=49    width=17    height=19    xoffset=0     yoffset=6     xadvance=17    page=0  chnl=15
char id=80   x=41    y=70    width=12    height=19    xoffset=-1    yoffset=6     xadvance=11    page=0  chnl=15
char id=81   x=0     y=27    width=20    height=22    xoffset=-1    yoffset=6     xadvance=18    page=0  chnl=15
char id=82   x=196   y=26    width=14    height=20    xoffset=0     yoffset=5     xadvance=13    page=0  chnl=15
char id=83   x=162   y=47    width=15    height=19    xoffset=0     yoffset=6     xadvance=15    page=0  chnl=15
char id=84   x=161   y=26    width=17    height=20    xoffset=-1    yoffset=5     xadvance=15    page=0  chnl=15
char id=85   x=146   y=47    width=15    height=19    xoffset=0     yoffset=6     xadvance=15    page=0  chnl=15
char id=86   x=258   y=47    width=14    height=19    xoffset=0     yoffset=6     xadvance=14    page=0  chnl=15
char id=87   x=462   y=24    width=22    height=19    xoffset=0     yoffset=6     xadvance=22    page=0  chnl=15
char id=88   x=129   y=47    width=16    height=19    xoffset=-1    yoffset=6     xadvance=15    page=0  chnl=15
char id=89   x=242   y=47    width=15    height=19    xoffset=-1    yoffset=6     xadvance=13    page=0  chnl=15
char id=90   x=112   y=48    width=16    height=19    xoffset=-1    yoffset=6     xadvance=15    page=0  chnl=15
char id=91   x=78    y=26    width=8     height=22    xoffset=0     yoffset=6     xadvance=8     page=0  chnl=15
char id=92   x=183   y=67    width=11    height=19    xoffset=1     yoffset=6     xadvance=12    page=0  chnl=15
char id=93   x=87    y=26    width=8     height=22    xoffset=0     yoffset=6     xadvance=8     page=0  chnl=15
char id=94   x=385   y=84    width=11    height=7     xoffset=0     yoffset=5     xadvance=13    page=0  chnl=15
char id=95   x=471   y=79    width=17    height=4     xoffset=-2    yoffset=24    xadvance=13    page=0  chnl=15
char id=96   x=414   y=82    width=7     height=7     xoffset=0     yoffset=5     xadvance=12    page=0  chnl=15
char id=97   x=83    y=89    width=12    height=14    xoffset=0     yoffset=11    xadvance=12    page=0  chnl=15
char id=98   x=0     y=70    width=13    height=19    xoffset=-1    yoffset=6     xadvance=12    page=0  chnl=15
char id=99   x=70    y=89    width=12    height=14    xoffset=-1    yoffset=11    xadvance=11    page=0  chnl=15
char id=100  x=158   y=67    width=12    height=19    xoffset=0     yoffset=6     xadvance=12    page=0  chnl=15
char id=101  x=0     y=90    width=13    height=14    xoffset=-1    yoffset=11    xadvance=12    page=0  chnl=15
char id=102  x=109   y=26    width=12    height=21    xoffset=-1    yoffset=6     xadvance=11    page=0  chnl=15
char id=103  x=80    y=69    width=12    height=19    xoffset=-1    yoffset=11    xadvance=11    page=0  chnl=15
char id=104  x=54    y=70    width=12    height=19    xoffset=0     yoffset=6     xadvance=12    page=0  chnl=15
char id=105  x=195   y=67    width=5     height=19    xoffset=0     yoffset=6     xadvance=6     page=0  chnl=15
char id=106  x=512   y=0     width=10    height=23    xoffset=-2    yoffset=7     xadvance=8     page=0  chnl=15
char id=107  x=106   y=69    width=12    height=19    xoffset=-1    yoffset=6     xadvance=11    page=0  chnl=15
char id=108  x=516   y=44    width=5     height=19    xoffset=0     yoffset=6     xadvance=6     page=0  chnl=15
char id=109  x=469   y=64    width=17    height=14    xoffset=-1    yoffset=11    xadvance=16    page=0  chnl=15
char id=110  x=145   y=87    width=11    height=14    xoffset=0     yoffset=11    xadvance=11    page=0  chnl=15
char id=111  x=42    y=90    width=13    height=14    xoffset=-2    yoffset=11    xadvance=11    page=0  chnl=15
char id=112  x=295   y=25    width=12    height=20    xoffset=-1    yoffset=11    xadvance=11    page=0  chnl=15
char id=113  x=308   y=25    width=12    height=20    xoffset=-1    yoffset=11    xadvance=11    page=0  chnl=15
char id=114  x=109   y=89    width=11    height=14    xoffset=0     yoffset=11    xadvance=10    page=0  chnl=15
char id=115  x=121   y=88    width=11    height=14    xoffset=-1    yoffset=11    xadvance=10    page=0  chnl=15
char id=116  x=381   y=66    width=11    height=17    xoffset=-1    yoffset=8     xadvance=10    page=0  chnl=15
char id=117  x=133   y=87    width=11    height=14    xoffset=0     yoffset=11    xadvance=11    page=0  chnl=15
char id=118  x=28    y=90    width=13    height=14    xoffset=-1    yoffset=11    xadvance=10    page=0  chnl=15
char id=119  x=504   y=64    width=15    height=14    xoffset=0     yoffset=11    xadvance=14    page=0  chnl=15
char id=120  x=14    y=90    width=13    height=14    xoffset=0     yoffset=11    xadvance=12    page=0  chnl=15
char id=121  x=348   y=46    width=13    height=19    xoffset=0     yoffset=11    xadvance=12    page=0  chnl=15
char id=122  x=96    y=89    width=12    height=14    xoffset=-1    yoffset=11    xadvance=11    page=0  chnl=15
char id=123  x=47    y=27    width=10    height=22    xoffset=-2    yoffset=6     xadvance=8     page=0  chnl=15
char id=124  x=405   y=0     width=5     height=24    xoffset=2     yoffset=4     xadvance=9     page=0  chnl=15
char id=125  x=36    y=27    width=10    height=22    xoffset=-1    yoffset=6     xadvance=8     page=0  chnl=15
char id=126  x=370   y=84    width=14    height=7     xoffset=-1    yoffset=12    xadvance=13    page=0  chnl=15
char id=160  x=511   y=79    width=3     height=3     xoffset=-1    yoffset=22    xadvance=10    page=0  chnl=15
char id=161  x=201   y=67    width=5     height=19    xoffset=0     yoffset=6     xadvance=5     page=0  chnl=15
char id=162  x=390   y=46    width=13    height=19    xoffset=0     yoffset=4     xadvance=13    page=0  chnl=15
char id=163  x=40    y=50    width=18    height=19    xoffset=-1    yoffset=6     xadvance=17    page=0  chnl=15
char id=164  x=487   y=64    width=16    height=14    xoffset=-1    yoffset=8     xadvance=13    page=0  chnl=15
char id=165  x=333   y=46    width=14    height=19    xoffset=-1    yoffset=6     xadvance=13    page=0  chnl=15
char id=166  x=411   y=0     width=5     height=24    xoffset=2     yoffset=4     xadvance=9     page=0  chnl=15
char id=167  x=502   y=44    width=13    height=19    xoffset=-1    yoffset=6     xadvance=13    page=0  chnl=15
char id=168  x=429   y=82    width=11    height=5     xoffset=1     yoffset=7     xadvance=12    page=0  chnl=15
char id=169  x=411   y=66    width=16    height=15    xoffset=0     yoffset=6     xadvance=17    page=0  chnl=15
char id=170  x=157   y=87    width=12    height=12    xoffset=0     yoffset=6     xadvance=13    page=0  chnl=15
char id=171  x=210   y=86    width=15    height=11    xoffset=-1    yoffset=11    xadvance=13    page=0  chnl=15
char id=172  x=346   y=85    width=11    height=8     xoffset=1     yoffset=15    xadvance=13    page=0  chnl=15
char id=173  x=489   y=79    width=10    height=4     xoffset=1     yoffset=16    xadvance=13    page=0  chnl=15
char id=174  x=393   y=66    width=17    height=16    xoffset=0     yoffset=6     xadvance=17    page=0  chnl=15
char id=175  x=453   y=79    width=17    height=4     xoffset=-2    yoffset=3     xadvance=13    page=0  chnl=15
char id=176  x=321   y=85    width=10    height=9     xoffset=1     yoffset=6     xadvance=13    page=0  chnl=15
char id=177  x=428   y=66    width=12    height=15    xoffset=0     yoffset=11    xadvance=13    page=0  chnl=15
char id=178  x=249   y=86    width=9     height=11    xoffset=2     yoffset=4     xadvance=13    page=0  chnl=15
char id=179  x=268   y=86    width=8     height=11    xoffset=3     yoffset=4     xadvance=13    page=0  chnl=15
char id=180  x=406   y=83    width=7     height=7     xoffset=1     yoffset=5     xadvance=12    page=0  chnl=15
char id=181  x=366   y=66    width=14    height=17    xoffset=0     yoffset=11    xadvance=13    page=0  chnl=15
char id=182  x=143   y=26    width=17    height=20    xoffset=-1    yoffset=6     xadvance=16    page=0  chnl=15
char id=183  x=441   y=81    width=5     height=5     xoffset=4     yoffset=13    xadvance=13    page=0  chnl=15
char id=184  x=397   y=83    width=8     height=7     xoffset=2     yoffset=21    xadvance=12    page=0  chnl=15
char id=185  x=259   y=86    width=8     height=11    xoffset=2     yoffset=4     xadvance=13    page=0  chnl=15
char id=186  x=226   y=86    width=12    height=11    xoffset=1     yoffset=6     xadvance=13    page=0  chnl=15
char id=187  x=194   y=87    width=15    height=11    xoffset=-1    yoffset=11    xadvance=13    page=0  chnl=15
char id=188  x=333   y=0     width=14    height=24    xoffset=0     yoffset=4     xadvance=13    page=0  chnl=15
char id=189  x=363   y=0     width=14    height=24    xoffset=0     yoffset=4     xadvance=13    page=0  chnl=15
char id=190  x=348   y=0     width=14    height=24    xoffset=-1    yoffset=4     xadvance=13    page=0  chnl=15
char id=191  x=145   y=67    width=12    height=19    xoffset=0     yoffset=6     xadvance=12    page=0  chnl=15
char id=192  x=208   y=0     width=15    height=25    xoffset=0     yoffset=0     xadvance=15    page=0  chnl=15
char id=193  x=192   y=0     width=15    height=25    xoffset=0     yoffset=0     xadvance=15    page=0  chnl=15
char id=194  x=176   y=0     width=15    height=25    xoffset=0     yoffset=0     xadvance=15    page=0  chnl=15
char id=195  x=316   y=0     width=16    height=24    xoffset=0     yoffset=1     xadvance=15    page=0  chnl=15
char id=196  x=435   y=0     width=16    height=23    xoffset=0     yoffset=2     xadvance=15    page=0  chnl=15
char id=197  x=468   y=0     width=15    height=23    xoffset=0     yoffset=2     xadvance=15    page=0  chnl=15
char id=198  x=437   y=24    width=24    height=19    xoffset=-1    yoffset=6     xadvance=23    page=0  chnl=15
char id=199  x=21    y=27    width=14    height=22    xoffset=0     yoffset=6     xadvance=13    page=0  chnl=15
char id=200  x=44    y=0     width=13    height=26    xoffset=0     yoffset=-1    xadvance=13    page=0  chnl=15
char id=201  x=16    y=0     width=13    height=26    xoffset=0     yoffset=-1    xadvance=13    page=0  chnl=15
char id=202  x=30    y=0     width=13    height=26    xoffset=0     yoffset=-1    xadvance=13    page=0  chnl=15
char id=203  x=378   y=0     width=13    height=24    xoffset=0     yoffset=1     xadvance=13    page=0  chnl=15
char id=204  x=238   y=0     width=13    height=25    xoffset=-1    yoffset=0     xadvance=11    page=0  chnl=15
char id=205  x=252   y=0     width=13    height=25    xoffset=-1    yoffset=0     xadvance=11    page=0  chnl=15
char id=206  x=224   y=0     width=13    height=25    xoffset=-1    yoffset=0     xadvance=11    page=0  chnl=15
char id=207  x=498   y=0     width=13    height=23    xoffset=-1    yoffset=2     xadvance=11    page=0  chnl=15
char id=208  x=505   y=24    width=17    height=19    xoffset=-1    yoffset=6     xadvance=15    page=0  chnl=15
char id=209  x=298   y=0     width=17    height=24    xoffset=0     yoffset=1     xadvance=17    page=0  chnl=15
char id=210  x=94    y=0     width=17    height=25    xoffset=1     yoffset=0     xadvance=17    page=0  chnl=15
char id=211  x=76    y=0     width=17    height=25    xoffset=0     yoffset=0     xadvance=17    page=0  chnl=15
char id=212  x=58    y=0     width=17    height=25    xoffset=1     yoffset=0     xadvance=17    page=0  chnl=15
char id=213  x=280   y=0     width=17    height=24    xoffset=1     yoffset=1     xadvance=17    page=0  chnl=15
char id=214  x=417   y=0     width=17    height=23    xoffset=0     yoffset=2     xadvance=17    page=0  chnl=15
char id=215  x=297   y=85    width=11    height=10    xoffset=1     yoffset=12    xadvance=13    page=0  chnl=15
char id=216  x=20    y=50    width=19    height=19    xoffset=-1    yoffset=6     xadvance=17    page=0  chnl=15
char id=217  x=112   y=0     width=15    height=25    xoffset=0     yoffset=0     xadvance=15    page=0  chnl=15
char id=218  x=144   y=0     width=15    height=25    xoffset=0     yoffset=0     xadvance=15    page=0  chnl=15
char id=219  x=160   y=0     width=15    height=25    xoffset=0     yoffset=0     xadvance=15    page=0  chnl=15
char id=220  x=452   y=0     width=15    height=23    xoffset=0     yoffset=2     xadvance=15    page=0  chnl=15
char id=221  x=0     y=0     width=15    height=26    xoffset=-1    yoffset=-1    xadvance=13    page=0  chnl=15
char id=222  x=132   y=67    width=12    height=19    xoffset=0     yoffset=6     xadvance=11    page=0  chnl=15
char id=223  x=385   y=25    width=11    height=20    xoffset=0     yoffset=6     xadvance=11    page=0  chnl=15
char id=224  x=347   y=25    width=12    height=20    xoffset=0     yoffset=5     xadvance=12    page=0  chnl=15
char id=225  x=321   y=25    width=12    height=20    xoffset=0     yoffset=5     xadvance=12    page=0  chnl=15
char id=226  x=334   y=25    width=12    height=20    xoffset=0     yoffset=5     xadvance=12    page=0  chnl=15
char id=227  x=119   y=68    width=12    height=19    xoffset=0     yoffset=6     xadvance=12    page=0  chnl=15
char id=228  x=310   y=66    width=12    height=18    xoffset=0     yoffset=7     xadvance=12    page=0  chnl=15
char id=229  x=96    y=26    width=12    height=21    xoffset=0     yoffset=4     xadvance=12    page=0  chnl=15
char id=230  x=448   y=64    width=20    height=14    xoffset=-1    yoffset=11    xadvance=19    page=0  chnl=15
char id=231  x=284   y=67    width=12    height=18    xoffset=-1    yoffset=11    xadvance=11    page=0  chnl=15
char id=232  x=211   y=26    width=13    height=20    xoffset=-1    yoffset=5     xadvance=12    page=0  chnl=15
char id=233  x=239   y=26    width=13    height=20    xoffset=-1    yoffset=5     xadvance=12    page=0  chnl=15
char id=234  x=253   y=26    width=13    height=20    xoffset=-1    yoffset=5     xadvance=12    page=0  chnl=15
char id=235  x=474   y=44    width=13    height=19    xoffset=-1    yoffset=6     xadvance=12    page=0  chnl=15
char id=236  x=421   y=24    width=7     height=20    xoffset=-1    yoffset=5     xadvance=6     page=0  chnl=15
char id=237  x=429   y=24    width=7     height=20    xoffset=0     yoffset=5     xadvance=6     page=0  chnl=15
char id=238  x=373   y=25    width=11    height=20    xoffset=-3    yoffset=5     xadvance=6     page=0  chnl=15
char id=239  x=336   y=66    width=11    height=18    xoffset=-2    yoffset=7     xadvance=6     page=0  chnl=15
char id=240  x=171   y=67    width=11    height=19    xoffset=0     yoffset=6     xadvance=11    page=0  chnl=15
char id=241  x=67    y=69    width=12    height=19    xoffset=0     yoffset=6     xadvance=11    page=0  chnl=15
char id=242  x=267   y=26    width=13    height=20    xoffset=-2    yoffset=5     xadvance=11    page=0  chnl=15
char id=243  x=225   y=26    width=13    height=20    xoffset=-2    yoffset=5     xadvance=11    page=0  chnl=15
char id=244  x=281   y=25    width=13    height=20    xoffset=-2    yoffset=5     xadvance=11    page=0  chnl=15
char id=245  x=273   y=47    width=14    height=19    xoffset=-2    yoffset=6     xadvance=11    page=0  chnl=15
char id=246  x=242   y=67    width=14    height=18    xoffset=-2    yoffset=7     xadvance=11    page=0  chnl=15
char id=247  x=309   y=85    width=11    height=10    xoffset=1     yoffset=12    xadvance=13    page=0  chnl=15
char id=248  x=56    y=90    width=13    height=14    xoffset=-2    yoffset=11    xadvance=11    page=0  chnl=15
char id=249  x=397   y=25    width=11    height=20    xoffset=1     yoffset=5     xadvance=11    page=0  chnl=15
char id=250  x=409   y=25    width=11    height=20    xoffset=1     yoffset=5     xadvance=11    page=0  chnl=15
char id=251  x=360   y=25    width=12    height=20    xoffset=0     yoffset=5     xadvance=11    page=0  chnl=15
char id=252  x=323   y=66    width=12    height=18    xoffset=1     yoffset=7     xadvance=11    page=0  chnl=15
char id=253  x=266   y=0     width=13    height=25    xoffset=0     yoffset=5     xadvance=12    page=0  chnl=15
char id=254  x=392   y=0     width=12    height=24    xoffset=0     yoffset=6     xadvance=11    page=0  chnl=15
char id=255  x=484   y=0     width=13    height=23    xoffset=0     yoffset=7     xadvance=12    page=0  chnl=15
