info face="Kristen ITC" size=30 bold=0 italic=0 charset="" unicode=1 stretchH=100 smooth=1 aa=1 padding=0,0,0,0 spacing=1,1 outline=1
common lineHeight=30 base=23 scaleW=523 scaleH=523 pages=1 packed=0 alphaChnl=1 redChnl=0 greenChnl=0 blueChnl=0
page id=0 file="SelectLevelMenu_0.png"
chars count=96
char id=160  x=361   y=49    width=3     height=3     xoffset=-1    yoffset=22    xadvance=7     page=0  chnl=15
char id=161  x=89    y=52    width=5     height=17    xoffset=0     yoffset=7     xadvance=6     page=0  chnl=15
char id=162  x=424   y=26    width=11    height=20    xoffset=0     yoffset=6     xadvance=10    page=0  chnl=15
char id=163  x=48    y=53    width=14    height=17    xoffset=-2    yoffset=7     xadvance=11    page=0  chnl=15
char id=164  x=179   y=51    width=13    height=13    xoffset=0     yoffset=7     xadvance=13    page=0  chnl=15
char id=165  x=115   y=51    width=10    height=16    xoffset=1     yoffset=8     xadvance=11    page=0  chnl=15
char id=166  x=206   y=28    width=6     height=22    xoffset=3     yoffset=6     xadvance=11    page=0  chnl=15
char id=167  x=464   y=26    width=10    height=19    xoffset=-1    yoffset=7     xadvance=9     page=0  chnl=15
char id=168  x=342   y=49    width=8     height=4     xoffset=1     yoffset=4     xadvance=11    page=0  chnl=15
char id=169  x=126   y=51    width=15    height=15    xoffset=-1    yoffset=7     xadvance=14    page=0  chnl=15
char id=170  x=169   y=51    width=9     height=14    xoffset=0     yoffset=7     xadvance=8     page=0  chnl=15
char id=171  x=246   y=50    width=12    height=11    xoffset=0     yoffset=10    xadvance=12    page=0  chnl=15
char id=172  x=286   y=50    width=12    height=10    xoffset=-1    yoffset=11    xadvance=12    page=0  chnl=15
char id=173  x=329   y=49    width=12    height=5     xoffset=0     yoffset=14    xadvance=12    page=0  chnl=15
char id=174  x=142   y=51    width=15    height=15    xoffset=-1    yoffset=7     xadvance=14    page=0  chnl=15
char id=175  x=351   y=49    width=9     height=3     xoffset=1     yoffset=5     xadvance=11    page=0  chnl=15
char id=176  x=299   y=50    width=9     height=9     xoffset=0     yoffset=6     xadvance=8     page=0  chnl=15
char id=177  x=193   y=51    width=12    height=13    xoffset=0     yoffset=10    xadvance=12    page=0  chnl=15
char id=178  x=259   y=50    width=9     height=11    xoffset=-1    yoffset=7     xadvance=7     page=0  chnl=15
char id=179  x=269   y=50    width=8     height=11    xoffset=-1    yoffset=7     xadvance=7     page=0  chnl=15
char id=180  x=317   y=50    width=6     height=6     xoffset=3     yoffset=2     xadvance=11    page=0  chnl=15
char id=181  x=296   y=28    width=13    height=21    xoffset=1     yoffset=8     xadvance=14    page=0  chnl=15
char id=182  x=451   y=26    width=12    height=19    xoffset=0     yoffset=7     xadvance=11    page=0  chnl=15
char id=183  x=324   y=49    width=4     height=6     xoffset=2     yoffset=12    xadvance=8     page=0  chnl=15
char id=184  x=309   y=50    width=7     height=8     xoffset=3     yoffset=20    xadvance=11    page=0  chnl=15
char id=185  x=278   y=50    width=7     height=11    xoffset=0     yoffset=7     xadvance=7     page=0  chnl=15
char id=186  x=158   y=51    width=10    height=14    xoffset=0     yoffset=7     xadvance=9     page=0  chnl=15
char id=187  x=231   y=50    width=14    height=11    xoffset=-1    yoffset=10    xadvance=12    page=0  chnl=15
char id=188  x=504   y=25    width=18    height=18    xoffset=0     yoffset=7     xadvance=17    page=0  chnl=15
char id=189  x=0     y=53    width=18    height=18    xoffset=0     yoffset=7     xadvance=17    page=0  chnl=15
char id=190  x=484   y=26    width=19    height=18    xoffset=-1    yoffset=7     xadvance=17    page=0  chnl=15
char id=191  x=19    y=53    width=11    height=18    xoffset=-1    yoffset=6     xadvance=9     page=0  chnl=15
char id=192  x=46    y=0     width=22    height=27    xoffset=-2    yoffset=-1    xadvance=20    page=0  chnl=15
char id=193  x=23    y=0     width=22    height=27    xoffset=-2    yoffset=-1    xadvance=20    page=0  chnl=15
char id=194  x=0     y=0     width=22    height=27    xoffset=-2    yoffset=-1    xadvance=20    page=0  chnl=15
char id=195  x=340   y=0     width=22    height=26    xoffset=-2    yoffset=0     xadvance=20    page=0  chnl=15
char id=196  x=403   y=0     width=22    height=25    xoffset=-2    yoffset=1     xadvance=20    page=0  chnl=15
char id=197  x=317   y=0     width=22    height=26    xoffset=-2    yoffset=0     xadvance=20    page=0  chnl=15
char id=198  x=496   y=0     width=26    height=24    xoffset=-1    yoffset=3     xadvance=23    page=0  chnl=15
char id=199  x=132   y=0     width=18    height=27    xoffset=0     yoffset=4     xadvance=19    page=0  chnl=15
char id=200  x=227   y=0     width=17    height=27    xoffset=0     yoffset=-1    xadvance=16    page=0  chnl=15
char id=201  x=245   y=0     width=17    height=27    xoffset=0     yoffset=-1    xadvance=16    page=0  chnl=15
char id=202  x=263   y=0     width=17    height=27    xoffset=0     yoffset=-1    xadvance=16    page=0  chnl=15
char id=203  x=466   y=0     width=17    height=25    xoffset=0     yoffset=1     xadvance=16    page=0  chnl=15
char id=204  x=281   y=0     width=11    height=27    xoffset=-1    yoffset=-1    xadvance=9     page=0  chnl=15
char id=205  x=293   y=0     width=11    height=27    xoffset=-1    yoffset=-1    xadvance=9     page=0  chnl=15
char id=206  x=305   y=0     width=11    height=27    xoffset=-1    yoffset=-1    xadvance=9     page=0  chnl=15
char id=207  x=484   y=0     width=11    height=25    xoffset=-1    yoffset=1     xadvance=9     page=0  chnl=15
char id=208  x=31    y=53    width=16    height=17    xoffset=-1    yoffset=7     xadvance=15    page=0  chnl=15
char id=209  x=384   y=0     width=18    height=26    xoffset=0     yoffset=0     xadvance=19    page=0  chnl=15
char id=210  x=69    y=0     width=20    height=27    xoffset=0     yoffset=-1    xadvance=20    page=0  chnl=15
char id=211  x=90    y=0     width=20    height=27    xoffset=0     yoffset=-1    xadvance=20    page=0  chnl=15
char id=212  x=111   y=0     width=20    height=27    xoffset=0     yoffset=-1    xadvance=20    page=0  chnl=15
char id=213  x=363   y=0     width=20    height=26    xoffset=0     yoffset=0     xadvance=20    page=0  chnl=15
char id=214  x=426   y=0     width=20    height=25    xoffset=0     yoffset=1     xadvance=20    page=0  chnl=15
char id=215  x=219   y=50    width=11    height=12    xoffset=0     yoffset=10    xadvance=12    page=0  chnl=15
char id=216  x=213   y=28    width=21    height=21    xoffset=-1    yoffset=5     xadvance=19    page=0  chnl=15
char id=217  x=170   y=0     width=18    height=27    xoffset=1     yoffset=-1    xadvance=19    page=0  chnl=15
char id=218  x=189   y=0     width=18    height=27    xoffset=1     yoffset=-1    xadvance=19    page=0  chnl=15
char id=219  x=151   y=0     width=18    height=27    xoffset=1     yoffset=-1    xadvance=19    page=0  chnl=15
char id=220  x=447   y=0     width=18    height=25    xoffset=1     yoffset=1     xadvance=19    page=0  chnl=15
char id=221  x=208   y=0     width=18    height=27    xoffset=-1    yoffset=-1    xadvance=15    page=0  chnl=15
char id=222  x=64    y=28    width=19    height=23    xoffset=-2    yoffset=4     xadvance=17    page=0  chnl=15
char id=223  x=76    y=52    width=12    height=17    xoffset=0     yoffset=7     xadvance=12    page=0  chnl=15
char id=224  x=39    y=28    width=12    height=24    xoffset=0     yoffset=2     xadvance=12    page=0  chnl=15
char id=225  x=0     y=28    width=12    height=24    xoffset=0     yoffset=2     xadvance=12    page=0  chnl=15
char id=226  x=13    y=28    width=12    height=24    xoffset=0     yoffset=2     xadvance=12    page=0  chnl=15
char id=227  x=84    y=28    width=12    height=23    xoffset=0     yoffset=3     xadvance=12    page=0  chnl=15
char id=228  x=181   y=28    width=12    height=22    xoffset=0     yoffset=4     xadvance=12    page=0  chnl=15
char id=229  x=26    y=28    width=12    height=24    xoffset=0     yoffset=2     xadvance=11    page=0  chnl=15
char id=230  x=95    y=52    width=19    height=16    xoffset=0     yoffset=8     xadvance=18    page=0  chnl=15
char id=231  x=235   y=28    width=15    height=21    xoffset=0     yoffset=7     xadvance=15    page=0  chnl=15
char id=232  x=97    y=28    width=13    height=22    xoffset=0     yoffset=2     xadvance=12    page=0  chnl=15
char id=233  x=111   y=28    width=13    height=22    xoffset=0     yoffset=2     xadvance=12    page=0  chnl=15
char id=234  x=125   y=28    width=13    height=22    xoffset=0     yoffset=2     xadvance=12    page=0  chnl=15
char id=235  x=396   y=27    width=13    height=20    xoffset=0     yoffset=4     xadvance=12    page=0  chnl=15
char id=236  x=346   y=27    width=8     height=21    xoffset=0     yoffset=2     xadvance=8     page=0  chnl=15
char id=237  x=355   y=27    width=8     height=21    xoffset=0     yoffset=2     xadvance=8     page=0  chnl=15
char id=238  x=336   y=27    width=9     height=21    xoffset=0     yoffset=2     xadvance=8     page=0  chnl=15
char id=239  x=475   y=26    width=8     height=19    xoffset=0     yoffset=4     xadvance=8     page=0  chnl=15
char id=240  x=63    y=53    width=12    height=17    xoffset=0     yoffset=7     xadvance=12    page=0  chnl=15
char id=241  x=310   y=28    width=12    height=21    xoffset=1     yoffset=3     xadvance=13    page=0  chnl=15
char id=242  x=281   y=28    width=14    height=21    xoffset=0     yoffset=2     xadvance=14    page=0  chnl=15
char id=243  x=266   y=28    width=14    height=21    xoffset=0     yoffset=2     xadvance=14    page=0  chnl=15
char id=244  x=251   y=28    width=14    height=21    xoffset=0     yoffset=2     xadvance=14    page=0  chnl=15
char id=245  x=381   y=27    width=14    height=20    xoffset=0     yoffset=3     xadvance=14    page=0  chnl=15
char id=246  x=436   y=26    width=14    height=19    xoffset=0     yoffset=4     xadvance=14    page=0  chnl=15
char id=247  x=206   y=51    width=12    height=12    xoffset=-1    yoffset=10    xadvance=12    page=0  chnl=15
char id=248  x=364   y=27    width=16    height=20    xoffset=0     yoffset=6     xadvance=15    page=0  chnl=15
char id=249  x=139   y=28    width=13    height=22    xoffset=1     yoffset=2     xadvance=14    page=0  chnl=15
char id=250  x=153   y=28    width=13    height=22    xoffset=1     yoffset=2     xadvance=14    page=0  chnl=15
char id=251  x=167   y=28    width=13    height=22    xoffset=1     yoffset=2     xadvance=14    page=0  chnl=15
char id=252  x=410   y=26    width=13    height=20    xoffset=1     yoffset=4     xadvance=14    page=0  chnl=15
char id=253  x=52    y=28    width=11    height=24    xoffset=-1    yoffset=2     xadvance=10    page=0  chnl=15
char id=254  x=323   y=27    width=12    height=21    xoffset=-1    yoffset=5     xadvance=11    page=0  chnl=15
char id=255  x=194   y=28    width=11    height=22    xoffset=-1    yoffset=4     xadvance=10    page=0  chnl=15
