info face="Comic Sans MS" size=42 bold=1 italic=0 charset="" unicode=1 stretchH=100 smooth=1 aa=1 padding=0,0,0,0 spacing=1,1 outline=2
common lineHeight=41 base=32 scaleW=523 scaleH=523 pages=1 packed=0 alphaChnl=1 redChnl=0 greenChnl=0 blueChnl=0
page id=0 file="LevelNameFont_0.png"
chars count=189
char id=32   x=515   y=74    width=5     height=5     xoffset=-2    yoffset=30    xadvance=13    page=0  chnl=15
char id=33   x=362   y=122   width=8     height=28    xoffset=0     yoffset=7     xadvance=7     page=0  chnl=15
char id=34   x=256   y=198   width=13    height=14    xoffset=-1    yoffset=7     xadvance=13    page=0  chnl=15
char id=35   x=25    y=37    width=29    height=30    xoffset=-2    yoffset=5     xadvance=25    page=0  chnl=15
char id=36   x=0     y=0     width=22    height=37    xoffset=0     yoffset=3     xadvance=21    page=0  chnl=15
char id=37   x=405   y=122   width=28    height=27    xoffset=0     yoffset=7     xadvance=25    page=0  chnl=15
char id=38   x=499   y=0     width=23    height=29    xoffset=-1    yoffset=7     xadvance=20    page=0  chnl=15
char id=39   x=515   y=59    width=7     height=14    xoffset=2     yoffset=7     xadvance=13    page=0  chnl=15
char id=40   x=343   y=0     width=14    height=33    xoffset=-1    yoffset=7     xadvance=11    page=0  chnl=15
char id=41   x=358   y=0     width=14    height=33    xoffset=-2    yoffset=7     xadvance=11    page=0  chnl=15
char id=42   x=236   y=198   width=19    height=16    xoffset=-2    yoffset=7     xadvance=16    page=0  chnl=15
char id=43   x=203   y=201   width=17    height=17    xoffset=0     yoffset=14    xadvance=18    page=0  chnl=15
char id=44   x=340   y=196   width=10    height=11    xoffset=1     yoffset=28    xadvance=13    page=0  chnl=15
char id=45   x=386   y=195   width=16    height=7     xoffset=1     yoffset=21    xadvance=18    page=0  chnl=15
char id=46   x=351   y=196   width=8     height=8     xoffset=2     yoffset=28    xadvance=13    page=0  chnl=15
char id=47   x=286   y=122   width=18    height=28    xoffset=-1    yoffset=7     xadvance=15    page=0  chnl=15
char id=48   x=64    y=127   width=20    height=28    xoffset=-1    yoffset=7     xadvance=18    page=0  chnl=15
char id=49   x=155   y=153   width=16    height=27    xoffset=1     yoffset=7     xadvance=18    page=0  chnl=15
char id=50   x=0     y=158   width=19    height=27    xoffset=-1    yoffset=7     xadvance=18    page=0  chnl=15
char id=51   x=168   y=124   width=19    height=28    xoffset=-1    yoffset=7     xadvance=18    page=0  chnl=15
char id=52   x=434   y=122   width=21    height=27    xoffset=-2    yoffset=7     xadvance=18    page=0  chnl=15
char id=53   x=22    y=129   width=20    height=28    xoffset=-1    yoffset=7     xadvance=18    page=0  chnl=15
char id=54   x=502   y=91    width=20    height=28    xoffset=-1    yoffset=7     xadvance=18    page=0  chnl=15
char id=55   x=392   y=93    width=21    height=28    xoffset=-1    yoffset=7     xadvance=18    page=0  chnl=15
char id=56   x=436   y=93    width=21    height=28    xoffset=-2    yoffset=7     xadvance=18    page=0  chnl=15
char id=57   x=127   y=124   width=20    height=28    xoffset=-1    yoffset=7     xadvance=18    page=0  chnl=15
char id=58   x=178   y=202   width=8     height=19    xoffset=3     yoffset=13    xadvance=13    page=0  chnl=15
char id=59   x=316   y=151   width=10    height=24    xoffset=1     yoffset=15    xadvance=13    page=0  chnl=15
char id=60   x=221   y=201   width=14    height=17    xoffset=2     yoffset=15    xadvance=18    page=0  chnl=15
char id=61   x=270   y=198   width=16    height=13    xoffset=1     yoffset=17    xadvance=18    page=0  chnl=15
char id=62   x=187   y=201   width=15    height=18    xoffset=2     yoffset=15    xadvance=18    page=0  chnl=15
char id=63   x=343   y=122   width=18    height=28    xoffset=0     yoffset=7     xadvance=17    page=0  chnl=15
char id=64   x=55    y=37    width=29    height=30    xoffset=-1    yoffset=6     xadvance=28    page=0  chnl=15
char id=65   x=120   y=95    width=23    height=28    xoffset=-1    yoffset=7     xadvance=22    page=0  chnl=15
char id=66   x=414   y=93    width=21    height=28    xoffset=-1    yoffset=7     xadvance=19    page=0  chnl=15
char id=67   x=326   y=93    width=21    height=28    xoffset=-1    yoffset=7     xadvance=19    page=0  chnl=15
char id=68   x=214   y=94    width=22    height=28    xoffset=1     yoffset=7     xadvance=22    page=0  chnl=15
char id=69   x=43    y=129   width=20    height=28    xoffset=0     yoffset=7     xadvance=19    page=0  chnl=15
char id=70   x=148   y=124   width=19    height=28    xoffset=-1    yoffset=7     xadvance=18    page=0  chnl=15
char id=71   x=466   y=62    width=24    height=28    xoffset=-1    yoffset=7     xadvance=20    page=0  chnl=15
char id=72   x=96    y=97    width=23    height=28    xoffset=0     yoffset=7     xadvance=23    page=0  chnl=15
char id=73   x=98    y=156   width=18    height=27    xoffset=-1    yoffset=7     xadvance=16    page=0  chnl=15
char id=74   x=420   y=33    width=23    height=29    xoffset=-1    yoffset=7     xadvance=20    page=0  chnl=15
char id=75   x=489   y=32    width=20    height=29    xoffset=0     yoffset=7     xadvance=18    page=0  chnl=15
char id=76   x=188   y=124   width=19    height=28    xoffset=0     yoffset=7     xadvance=17    page=0  chnl=15
char id=77   x=211   y=35    width=27    height=29    xoffset=0     yoffset=7     xadvance=26    page=0  chnl=15
char id=78   x=293   y=34    width=25    height=29    xoffset=0     yoffset=7     xadvance=24    page=0  chnl=15
char id=79   x=206   y=65    width=26    height=28    xoffset=-1    yoffset=7     xadvance=24    page=0  chnl=15
char id=80   x=248   y=123   width=18    height=28    xoffset=-1    yoffset=7     xadvance=16    page=0  chnl=15
char id=81   x=137   y=0     width=29    height=34    xoffset=-1    yoffset=7     xadvance=26    page=0  chnl=15
char id=82   x=467   y=32    width=21    height=29    xoffset=-1    yoffset=6     xadvance=19    page=0  chnl=15
char id=83   x=48    y=98    width=23    height=28    xoffset=-1    yoffset=7     xadvance=21    page=0  chnl=15
char id=84   x=345   y=34    width=25    height=29    xoffset=-2    yoffset=6     xadvance=21    page=0  chnl=15
char id=85   x=416   y=64    width=24    height=28    xoffset=-1    yoffset=7     xadvance=22    page=0  chnl=15
char id=86   x=168   y=95    width=22    height=28    xoffset=-1    yoffset=7     xadvance=20    page=0  chnl=15
char id=87   x=119   y=36    width=31    height=29    xoffset=1     yoffset=7     xadvance=31    page=0  chnl=15
char id=88   x=340   y=64    width=25    height=28    xoffset=-2    yoffset=7     xadvance=22    page=0  chnl=15
char id=89   x=191   y=94    width=22    height=28    xoffset=-2    yoffset=7     xadvance=19    page=0  chnl=15
char id=90   x=391   y=64    width=24    height=28    xoffset=-2    yoffset=7     xadvance=21    page=0  chnl=15
char id=91   x=386   y=0     width=12    height=33    xoffset=0     yoffset=7     xadvance=11    page=0  chnl=15
char id=92   x=38    y=68    width=17    height=29    xoffset=0     yoffset=7     xadvance=17    page=0  chnl=15
char id=93   x=373   y=0     width=12    height=33    xoffset=-1    yoffset=7     xadvance=11    page=0  chnl=15
char id=94   x=308   y=197   width=18    height=11    xoffset=1     yoffset=6     xadvance=18    page=0  chnl=15
char id=95   x=360   y=196   width=25    height=7     xoffset=-3    yoffset=32    xadvance=19    page=0  chnl=15
char id=96   x=327   y=196   width=12    height=11    xoffset=-1    yoffset=6     xadvance=17    page=0  chnl=15
char id=97   x=367   y=174   width=19    height=20    xoffset=-1    yoffset=15    xadvance=17    page=0  chnl=15
char id=98   x=370   y=93    width=21    height=28    xoffset=-2    yoffset=7     xadvance=18    page=0  chnl=15
char id=99   x=90    y=205   width=17    height=20    xoffset=-1    yoffset=15    xadvance=15    page=0  chnl=15
char id=100  x=228   y=123   width=19    height=28    xoffset=-1    yoffset=7     xadvance=18    page=0  chnl=15
char id=101  x=347   y=175   width=19    height=20    xoffset=-1    yoffset=15    xadvance=17    page=0  chnl=15
char id=102  x=19    y=70    width=18    height=29    xoffset=-2    yoffset=7     xadvance=15    page=0  chnl=15
char id=103  x=40    y=158   width=19    height=27    xoffset=-2    yoffset=15    xadvance=16    page=0  chnl=15
char id=104  x=267   y=122   width=18    height=28    xoffset=0     yoffset=7     xadvance=17    page=0  chnl=15
char id=105  x=197   y=153   width=8     height=26    xoffset=0     yoffset=9     xadvance=8     page=0  chnl=15
char id=106  x=327   y=0     width=15    height=33    xoffset=-3    yoffset=9     xadvance=12    page=0  chnl=15
char id=107  x=324   y=122   width=18    height=28    xoffset=0     yoffset=7     xadvance=16    page=0  chnl=15
char id=108  x=510   y=30    width=8     height=28    xoffset=0     yoffset=7     xadvance=8     page=0  chnl=15
char id=109  x=378   y=150   width=26    height=22    xoffset=-1    yoffset=14    xadvance=23    page=0  chnl=15
char id=110  x=425   y=172   width=18    height=20    xoffset=-1    yoffset=15    xadvance=16    page=0  chnl=15
char id=111  x=307   y=176   width=19    height=20    xoffset=-2    yoffset=15    xadvance=16    page=0  chnl=15
char id=112  x=60    y=158   width=18    height=27    xoffset=-1    yoffset=15    xadvance=16    page=0  chnl=15
char id=113  x=117   y=155   width=18    height=27    xoffset=-1    yoffset=15    xadvance=16    page=0  chnl=15
char id=114  x=18    y=207   width=17    height=20    xoffset=-1    yoffset=15    xadvance=14    page=0  chnl=15
char id=115  x=36    y=207   width=17    height=20    xoffset=-1    yoffset=15    xadvance=15    page=0  chnl=15
char id=116  x=206   y=153   width=18    height=25    xoffset=-2    yoffset=10    xadvance=14    page=0  chnl=15
char id=117  x=387   y=173   width=18    height=20    xoffset=-1    yoffset=15    xadvance=16    page=0  chnl=15
char id=118  x=482   y=171   width=18    height=20    xoffset=-2    yoffset=15    xadvance=15    page=0  chnl=15
char id=119  x=110   y=184   width=24    height=20    xoffset=-2    yoffset=15    xadvance=21    page=0  chnl=15
char id=120  x=225   y=177   width=20    height=20    xoffset=-2    yoffset=15    xadvance=18    page=0  chnl=15
char id=121  x=456   y=122   width=20    height=27    xoffset=-1    yoffset=15    xadvance=17    page=0  chnl=15
char id=122  x=287   y=176   width=19    height=20    xoffset=-2    yoffset=15    xadvance=16    page=0  chnl=15
char id=123  x=277   y=0     width=16    height=33    xoffset=-3    yoffset=7     xadvance=11    page=0  chnl=15
char id=124  x=211   y=0     width=8     height=34    xoffset=3     yoffset=5     xadvance=13    page=0  chnl=15
char id=125  x=294   y=0     width=16    height=33    xoffset=-3    yoffset=7     xadvance=11    page=0  chnl=15
char id=126  x=287   y=197   width=20    height=11    xoffset=-1    yoffset=16    xadvance=18    page=0  chnl=15
char id=1025 x=190   y=0     width=20    height=34    xoffset=0     yoffset=1     xadvance=19    page=0  chnl=15
char id=1026 x=220   y=0     width=29    height=33    xoffset=-2    yoffset=6     xadvance=26    page=0  chnl=15
char id=1027 x=23    y=0     width=21    height=36    xoffset=-1    yoffset=-1    xadvance=17    page=0  chnl=15
char id=1028 x=24    y=100   width=23    height=28    xoffset=-2    yoffset=7     xadvance=18    page=0  chnl=15
char id=1029 x=491   y=62    width=23    height=28    xoffset=-1    yoffset=7     xadvance=21    page=0  chnl=15
char id=1030 x=79    y=156   width=18    height=27    xoffset=-1    yoffset=7     xadvance=16    page=0  chnl=15
char id=1031 x=419   y=0     width=18    height=32    xoffset=-1    yoffset=2     xadvance=16    page=0  chnl=15
char id=1032 x=396   y=34    width=23    height=29    xoffset=-1    yoffset=7     xadvance=20    page=0  chnl=15
char id=1033 x=85    y=36    width=33    height=29    xoffset=-2    yoffset=6     xadvance=30    page=0  chnl=15
char id=1034 x=113   y=66    width=32    height=28    xoffset=-2    yoffset=7     xadvance=29    page=0  chnl=15
char id=1035 x=182   y=35    width=28    height=29    xoffset=-3    yoffset=6     xadvance=25    page=0  chnl=15
char id=1036 x=45    y=0     width=21    height=36    xoffset=-1    yoffset=-1    xadvance=19    page=0  chnl=15
char id=1038 x=92    y=0     width=23    height=35    xoffset=-2    yoffset=0     xadvance=19    page=0  chnl=15
char id=1039 x=0     y=38    width=24    height=31    xoffset=-1    yoffset=7     xadvance=22    page=0  chnl=15
char id=1040 x=72    y=98    width=23    height=28    xoffset=-1    yoffset=7     xadvance=22    page=0  chnl=15
char id=1041 x=85    y=127   width=20    height=28    xoffset=-1    yoffset=7     xadvance=18    page=0  chnl=15
char id=1042 x=0     y=129   width=21    height=28    xoffset=-1    yoffset=7     xadvance=19    page=0  chnl=15
char id=1043 x=480   y=91    width=21    height=28    xoffset=-1    yoffset=7     xadvance=17    page=0  chnl=15
char id=1044 x=250   y=0     width=26    height=33    xoffset=-2    yoffset=6     xadvance=23    page=0  chnl=15
char id=1045 x=106   y=126   width=20    height=28    xoffset=0     yoffset=7     xadvance=19    page=0  chnl=15
char id=1046 x=177   y=65    width=28    height=28    xoffset=-1    yoffset=7     xadvance=26    page=0  chnl=15
char id=1047 x=282   y=93    width=21    height=28    xoffset=-2    yoffset=7     xadvance=18    page=0  chnl=15
char id=1048 x=441   y=63    width=24    height=28    xoffset=-1    yoffset=7     xadvance=22    page=0  chnl=15
char id=1049 x=67    y=0     width=24    height=35    xoffset=-1    yoffset=0     xadvance=22    page=0  chnl=15
char id=1050 x=458   y=92    width=21    height=28    xoffset=-1    yoffset=7     xadvance=19    page=0  chnl=15
char id=1051 x=267   y=34    width=25    height=29    xoffset=-2    yoffset=6     xadvance=22    page=0  chnl=15
char id=1052 x=239   y=34    width=27    height=29    xoffset=0     yoffset=7     xadvance=26    page=0  chnl=15
char id=1053 x=0     y=100   width=23    height=28    xoffset=0     yoffset=7     xadvance=23    page=0  chnl=15
char id=1054 x=287   y=64    width=26    height=28    xoffset=-1    yoffset=7     xadvance=24    page=0  chnl=15
char id=1055 x=151   y=35    width=30    height=29    xoffset=-1    yoffset=6     xadvance=27    page=0  chnl=15
char id=1056 x=305   y=122   width=18    height=28    xoffset=-1    yoffset=7     xadvance=16    page=0  chnl=15
char id=1057 x=348   y=93    width=21    height=28    xoffset=-1    yoffset=7     xadvance=19    page=0  chnl=15
char id=1058 x=319   y=34    width=25    height=29    xoffset=-2    yoffset=6     xadvance=21    page=0  chnl=15
char id=1059 x=144   y=95    width=23    height=28    xoffset=-2    yoffset=7     xadvance=19    page=0  chnl=15
char id=1060 x=366   y=64    width=24    height=28    xoffset=-3    yoffset=7     xadvance=18    page=0  chnl=15
char id=1061 x=314   y=64    width=25    height=28    xoffset=-2    yoffset=7     xadvance=22    page=0  chnl=15
char id=1062 x=472   y=0     width=26    height=31    xoffset=-1    yoffset=7     xadvance=23    page=0  chnl=15
char id=1063 x=304   y=93    width=21    height=28    xoffset=-2    yoffset=7     xadvance=19    page=0  chnl=15
char id=1064 x=146   y=66    width=30    height=28    xoffset=-2    yoffset=7     xadvance=27    page=0  chnl=15
char id=1065 x=438   y=0     width=33    height=31    xoffset=-2    yoffset=7     xadvance=29    page=0  chnl=15
char id=1066 x=260   y=64    width=26    height=28    xoffset=-2    yoffset=6     xadvance=23    page=0  chnl=15
char id=1067 x=371   y=122   width=33    height=27    xoffset=-1    yoffset=7     xadvance=32    page=0  chnl=15
char id=1068 x=498   y=120   width=20    height=27    xoffset=-1    yoffset=7     xadvance=18    page=0  chnl=15
char id=1069 x=237   y=94    width=22    height=28    xoffset=-1    yoffset=7     xadvance=20    page=0  chnl=15
char id=1070 x=74    y=68    width=38    height=28    xoffset=-3    yoffset=7     xadvance=34    page=0  chnl=15
char id=1071 x=371   y=34    width=24    height=29    xoffset=-3    yoffset=6     xadvance=19    page=0  chnl=15
char id=1072 x=267   y=177   width=19    height=20    xoffset=-1    yoffset=15    xadvance=17    page=0  chnl=15
char id=1073 x=208   y=123   width=19    height=28    xoffset=-1    yoffset=7     xadvance=16    page=0  chnl=15
char id=1074 x=126   y=205   width=17    height=20    xoffset=-1    yoffset=15    xadvance=15    page=0  chnl=15
char id=1075 x=0     y=207   width=17    height=20    xoffset=-1    yoffset=15    xadvance=14    page=0  chnl=15
char id=1076 x=253   y=152   width=22    height=24    xoffset=-1    yoffset=14    xadvance=18    page=0  chnl=15
char id=1077 x=327   y=175   width=19    height=20    xoffset=-1    yoffset=15    xadvance=17    page=0  chnl=15
char id=1078 x=135   y=183   width=23    height=20    xoffset=-2    yoffset=15    xadvance=20    page=0  chnl=15
char id=1079 x=162   y=202   width=15    height=20    xoffset=-1    yoffset=15    xadvance=13    page=0  chnl=15
char id=1080 x=159   y=181   width=21    height=20    xoffset=-1    yoffset=15    xadvance=19    page=0  chnl=15
char id=1081 x=260   y=93    width=21    height=28    xoffset=-1    yoffset=7     xadvance=19    page=0  chnl=15
char id=1082 x=406   y=172   width=18    height=20    xoffset=-1    yoffset=15    xadvance=15    page=0  chnl=15
char id=1083 x=450   y=150   width=21    height=21    xoffset=-2    yoffset=14    xadvance=19    page=0  chnl=15
char id=1084 x=57    y=186   width=26    height=20    xoffset=-2    yoffset=15    xadvance=22    page=0  chnl=15
char id=1085 x=203   y=180   width=21    height=20    xoffset=-2    yoffset=15    xadvance=17    page=0  chnl=15
char id=1086 x=181   y=180   width=21    height=20    xoffset=-2    yoffset=15    xadvance=18    page=0  chnl=15
char id=1087 x=428   y=150   width=21    height=21    xoffset=-1    yoffset=14    xadvance=19    page=0  chnl=15
char id=1088 x=136   y=153   width=18    height=27    xoffset=-1    yoffset=15    xadvance=16    page=0  chnl=15
char id=1089 x=108   y=205   width=17    height=20    xoffset=-1    yoffset=15    xadvance=15    page=0  chnl=15
char id=1090 x=444   y=172   width=18    height=20    xoffset=-2    yoffset=15    xadvance=14    page=0  chnl=15
char id=1091 x=477   y=121   width=20    height=27    xoffset=-1    yoffset=15    xadvance=17    page=0  chnl=15
char id=1092 x=233   y=65    width=26    height=28    xoffset=-1    yoffset=15    xadvance=24    page=0  chnl=15
char id=1093 x=246   y=177   width=20    height=20    xoffset=-2    yoffset=15    xadvance=18    page=0  chnl=15
char id=1094 x=327   y=151   width=22    height=23    xoffset=0     yoffset=15    xadvance=19    page=0  chnl=15
char id=1095 x=503   y=148   width=19    height=20    xoffset=-1    yoffset=15    xadvance=16    page=0  chnl=15
char id=1096 x=30    y=186   width=26    height=20    xoffset=-1    yoffset=15    xadvance=23    page=0  chnl=15
char id=1097 x=225   y=152   width=27    height=24    xoffset=-1    yoffset=15    xadvance=24    page=0  chnl=15
char id=1098 x=405   y=150   width=22    height=21    xoffset=-2    yoffset=14    xadvance=19    page=0  chnl=15
char id=1099 x=350   y=151   width=27    height=22    xoffset=-1    yoffset=14    xadvance=24    page=0  chnl=15
char id=1100 x=501   y=171   width=17    height=20    xoffset=-1    yoffset=15    xadvance=15    page=0  chnl=15
char id=1101 x=144   y=204   width=17    height=20    xoffset=-1    yoffset=15    xadvance=15    page=0  chnl=15
char id=1102 x=0     y=186   width=29    height=20    xoffset=-1    yoffset=15    xadvance=27    page=0  chnl=15
char id=1103 x=463   y=172   width=18    height=20    xoffset=-1    yoffset=15    xadvance=15    page=0  chnl=15
char id=1105 x=20    y=158   width=19    height=27    xoffset=-1    yoffset=8     xadvance=17    page=0  chnl=15
char id=1106 x=167   y=0     width=22    height=34    xoffset=-3    yoffset=7     xadvance=17    page=0  chnl=15
char id=1107 x=56    y=68    width=17    height=29    xoffset=-1    yoffset=6     xadvance=14    page=0  chnl=15
char id=1108 x=54    y=207   width=17    height=20    xoffset=-1    yoffset=15    xadvance=15    page=0  chnl=15
char id=1109 x=72    y=207   width=17    height=20    xoffset=-1    yoffset=15    xadvance=15    page=0  chnl=15
char id=1110 x=188   y=153   width=8     height=26    xoffset=0     yoffset=9     xadvance=8     page=0  chnl=15
char id=1111 x=172   y=153   width=15    height=26    xoffset=-3    yoffset=9     xadvance=8     page=0  chnl=15
char id=1112 x=311   y=0     width=15    height=33    xoffset=-3    yoffset=9     xadvance=12    page=0  chnl=15
char id=1113 x=472   y=150   width=30    height=20    xoffset=-2    yoffset=15    xadvance=27    page=0  chnl=15
char id=1114 x=84    y=184   width=25    height=20    xoffset=-1    yoffset=15    xadvance=23    page=0  chnl=15
char id=1115 x=444   y=32    width=22    height=29    xoffset=-4    yoffset=7     xadvance=17    page=0  chnl=15
char id=1116 x=0     y=70    width=18    height=29    xoffset=-1    yoffset=6     xadvance=15    page=0  chnl=15
char id=1118 x=116   y=0     width=20    height=35    xoffset=-1    yoffset=7     xadvance=17    page=0  chnl=15
char id=1119 x=276   y=151   width=21    height=24    xoffset=-1    yoffset=15    xadvance=19    page=0  chnl=15
char id=1168 x=399   y=0     width=19    height=32    xoffset=0     yoffset=3     xadvance=18    page=0  chnl=15
char id=1169 x=298   y=151   width=17    height=24    xoffset=-1    yoffset=11    xadvance=14    page=0  chnl=15
